<?xml version="1.0" standalone="no"?>
<!DOCTYPE svg PUBLIC "-//W3C//DTD SVG 20010904//EN"
 "http://www.w3.org/TR/2001/REC-SVG-20010904/DTD/svg10.dtd">
<svg version="1.0" xmlns="http://www.w3.org/2000/svg"
 width="2605.000000pt" height="2605.000000pt" viewBox="0 0 2605.000000 2605.000000"
 preserveAspectRatio="xMidYMid meet">

<g transform="translate(0.000000,2605.000000) scale(0.100000,-0.100000)"
fill="#000000" stroke="none">
<path d="M13765 25171 c-22 -10 -78 -57 -124 -104 -81 -82 -84 -87 -78 -122 7
-45 25 -66 97 -114 37 -24 58 -47 65 -67 9 -28 12 -30 38 -21 22 7 41 4 84
-12 30 -12 63 -21 72 -21 10 0 26 -10 37 -21 10 -12 46 -40 79 -62 81 -54 105
-77 105 -99 0 -11 25 -46 56 -78 52 -54 56 -62 50 -93 -4 -19 -19 -50 -34 -70
-27 -35 -97 -87 -117 -87 -9 1 -46 77 -129 267 -29 69 -33 72 -64 73 -29 0
-32 2 -23 19 20 37 -46 61 -168 61 -130 0 -204 -24 -271 -88 -30 -29 -58 -52
-62 -52 -4 0 -23 -21 -42 -46 -29 -38 -33 -49 -24 -64 10 -15 6 -24 -19 -54
-36 -40 -40 -62 -47 -246 l-4 -125 50 -48 51 -47 -13 -60 c-8 -40 -18 -61 -30
-65 -9 -3 -26 -21 -36 -41 -11 -21 -35 -44 -57 -56 -30 -15 -45 -32 -64 -76
-15 -31 -43 -79 -65 -106 -47 -60 -50 -107 -13 -216 14 -40 25 -87 25 -104 0
-17 7 -53 15 -80 8 -27 18 -114 21 -200 10 -226 -15 -366 -82 -453 -55 -72
-224 -120 -385 -109 -85 6 -86 6 -232 -48 -174 -65 -310 -130 -391 -189 -52
-37 -61 -50 -85 -113 -15 -38 -65 -139 -110 -222 -46 -84 -91 -177 -100 -207
-10 -30 -23 -61 -29 -67 -7 -7 -12 -27 -12 -44 0 -18 -4 -36 -10 -39 -19 -12
-41 -112 -60 -272 -21 -181 -32 -231 -62 -285 l-21 -36 -146 -9 c-175 -10
-240 -7 -303 13 -54 18 -75 13 -119 -23 -53 -45 -54 -65 -10 -141 67 -114 148
-172 238 -172 14 0 35 -13 52 -33 16 -18 62 -51 102 -72 41 -22 90 -54 109
-72 32 -28 44 -32 120 -38 l85 -7 68 70 c37 39 67 77 67 86 0 31 55 187 127
361 41 99 85 218 99 264 13 47 26 87 29 89 3 3 26 7 52 9 l48 5 48 114 c42
102 65 175 82 255 l5 27 92 -28 c125 -37 149 -47 179 -76 l26 -25 164 20 c90
12 209 22 264 23 l100 3 3 -70 c2 -38 -2 -156 -8 -261 -14 -215 -15 -208 57
-286 l45 -47 -17 -88 c-21 -106 -16 -311 10 -413 16 -61 64 -176 102 -245 80
-144 143 -274 143 -295 0 -29 18 -59 66 -110 18 -19 37 -47 43 -61 6 -17 8
-159 5 -386 -6 -364 -5 -371 30 -454 6 -14 -10 -17 -129 -23 -99 -5 -140 -4
-151 5 -8 7 -29 9 -51 5 -21 -3 -128 -5 -238 -5 -110 0 -265 -5 -345 -11 -232
-16 -248 -23 -138 -54 31 -9 59 -20 62 -25 3 -4 -25 -20 -62 -35 -54 -21 -103
-29 -233 -41 -90 -8 -184 -18 -207 -21 l-44 -7 26 42 c14 22 26 42 26 43 0 5
-152 -2 -177 -8 -15 -3 -23 -12 -23 -24 0 -19 -7 -20 -92 -20 -51 0 -111 -3
-133 -6 -32 -4 -6 13 125 81 l165 85 -60 -6 c-33 -3 -111 -17 -174 -31 -313
-68 -651 -200 -1104 -431 -197 -100 -225 -117 -205 -125 62 -24 304 27 511
107 110 43 121 45 170 36 83 -15 227 -53 227 -60 0 -10 -140 -62 -153 -57 -7
2 -21 -4 -32 -13 -11 -10 -45 -29 -76 -43 l-57 -25 5 39 c5 34 3 39 -15 39
-11 0 -33 -5 -48 -10 -21 -8 -31 -7 -44 5 -27 25 -58 19 -65 -13 -11 -51 -41
-89 -74 -94 -38 -6 -43 -1 -30 24 10 18 8 18 -33 -3 -24 -12 -60 -33 -81 -46
-22 -14 -41 -22 -43 -20 -3 2 10 14 27 25 l32 20 -42 20 -43 21 -201 -106
c-327 -170 -487 -272 -576 -367 -35 -36 -33 -48 3 -21 27 21 39 19 26 -4 -16
-30 -12 -41 14 -41 57 0 57 -8 4 -83 -69 -99 -76 -105 -70 -67 2 16 1 30 -4
30 -4 0 -60 -51 -123 -114 -111 -108 -178 -156 -219 -156 -12 0 -21 -11 -27
-32 -6 -19 -18 -34 -29 -36 -34 -7 -39 13 -17 63 25 57 25 55 4 55 -10 1 -29
7 -43 14 -22 13 -28 12 -63 -16 -37 -30 -38 -30 -33 -7 9 42 26 142 26 156 0
24 -19 14 -112 -63 -156 -128 -311 -293 -349 -369 l-32 -66 21 -52 c12 -29 22
-56 22 -60 0 -5 -20 -34 -43 -65 -24 -31 -70 -96 -102 -144 -49 -75 -60 -86
-76 -78 -10 6 -29 10 -44 10 -43 0 -50 -37 -29 -162 16 -96 16 -109 2 -125 -8
-10 -38 -57 -66 -104 -64 -107 -79 -121 -99 -94 -14 20 -14 20 -29 1 -8 -12
-14 -45 -15 -80 -1 -79 -17 -38 -18 47 -1 32 -5 57 -10 55 -16 -6 -103 -113
-155 -193 -126 -191 -214 -372 -483 -994 -8 -18 61 -8 155 21 53 16 66 17 73
6 12 -19 11 -148 -2 -208 -9 -42 -13 -49 -25 -39 -8 6 -12 20 -9 30 3 9 1 20
-5 24 -5 3 -10 1 -10 -5 0 -6 -10 -10 -22 -8 -18 2 -24 11 -26 36 -4 36 -23
42 -58 17 -12 -8 -25 -11 -29 -7 -5 4 -5 -1 -2 -10 7 -21 -30 -148 -43 -148
-5 0 -10 12 -12 27 -4 32 -28 44 -28 14 0 -11 -24 -67 -54 -124 -61 -117 -104
-246 -140 -420 l-25 -117 -61 -68 c-262 -288 -479 -830 -531 -1331 -12 -114
-7 -483 6 -528 11 -35 -21 -29 -40 7 -27 51 -82 65 -135 33 l-29 -17 -50 47
c-28 26 -60 47 -72 47 -34 0 -144 121 -288 319 -71 97 -183 234 -248 304 -88
93 -136 155 -183 234 -77 130 -126 181 -204 213 -33 13 -82 39 -110 58 -28 19
-76 47 -106 63 -77 40 -100 62 -100 96 -1 45 -35 110 -68 127 -16 8 -33 12
-36 8 -4 -3 -10 -2 -14 4 -8 12 -115 64 -132 64 -7 0 -34 11 -60 24 -27 14
-50 20 -52 15 -2 -6 -25 -4 -58 5 -110 31 -139 37 -340 76 -272 52 -307 58
-431 74 -58 7 -121 21 -140 29 -19 8 -54 18 -78 21 -66 10 -82 21 -71 51 11
29 8 30 -25 9 -14 -9 -33 -13 -45 -9 -14 5 -20 2 -20 -9 0 -11 -9 -16 -30 -16
-16 0 -30 -5 -30 -10 0 -6 -8 -14 -17 -18 -10 -4 -40 -20 -66 -36 -47 -28 -51
-29 -139 -22 -50 4 -165 18 -257 31 -196 29 -271 32 -271 10 0 -9 -9 -15 -22
-15 -41 0 -226 -69 -341 -126 -134 -68 -218 -100 -289 -113 -29 -5 -62 -12
-74 -16 -20 -6 -21 -2 -27 82 -3 48 -20 142 -37 208 -43 167 -49 202 -65 351
-10 101 -20 148 -44 208 -17 43 -31 83 -31 91 0 17 -49 128 -101 228 -22 42
-35 77 -30 77 6 0 5 13 -3 32 -17 41 -28 148 -15 148 5 0 -4 25 -19 56 l-27
56 28 23 c24 19 26 23 12 29 -9 3 -29 6 -44 6 -33 0 -44 9 -31 25 8 9 -1 16
-32 24 -36 11 -49 22 -80 71 -30 48 -43 59 -72 64 -44 8 -52 20 -32 51 22 34
21 35 -27 35 -37 0 -50 6 -80 35 -28 28 -44 35 -74 35 -43 0 -110 -28 -135
-56 -16 -19 -15 -22 22 -69 21 -27 36 -53 34 -57 -6 -9 44 -74 94 -124 17 -18
32 -41 32 -52 0 -11 11 -36 25 -56 14 -20 25 -43 25 -51 0 -7 7 -21 16 -29 8
-9 20 -44 25 -78 6 -34 12 -65 15 -69 15 -24 45 -171 59 -288 9 -74 21 -145
26 -158 5 -13 9 -52 9 -86 0 -75 18 -144 55 -217 28 -54 34 -77 54 -195 36
-212 36 -186 1 -277 -43 -110 -62 -219 -49 -279 6 -26 30 -82 55 -125 37 -65
94 -186 94 -201 0 -2 -14 4 -31 12 -23 13 -38 14 -59 7 -15 -6 -46 -8 -67 -5
-36 5 -39 3 -62 -37 l-24 -42 -71 4 -72 5 4 -34 c4 -30 2 -33 -22 -33 -35 0
-56 -43 -56 -118 0 -52 -3 -60 -24 -70 -13 -6 -27 -20 -31 -30 -3 -11 -17 -28
-31 -37 -32 -21 -80 -121 -89 -187 -4 -28 -15 -58 -26 -69 -10 -10 -19 -26
-19 -34 0 -9 -12 -20 -27 -26 l-28 -11 28 -23 c27 -24 36 -58 17 -70 -5 -3 -8
-19 -7 -35 2 -23 7 -30 23 -30 12 0 27 -7 34 -15 7 -8 9 -15 4 -15 -4 0 -3 -5
4 -12 18 -18 14 -38 -8 -38 -11 0 -43 11 -72 25 -63 30 -82 31 -108 5 -25 -25
-25 -65 0 -113 l20 -37 -89 2 c-125 2 -143 -10 -170 -125 -16 -67 -14 -91 8
-119 13 -16 18 -33 14 -47 -6 -24 39 -81 65 -81 11 0 13 -9 9 -35 -5 -31 -2
-38 27 -60 26 -20 104 -55 122 -55 2 0 4 7 4 15 0 8 5 15 10 15 6 0 10 8 10
18 0 9 10 22 22 29 61 31 97 45 138 56 25 6 52 17 61 24 25 21 39 16 95 -34
166 -148 202 -172 439 -293 232 -118 274 -129 358 -90 55 26 114 89 153 163
29 56 61 103 125 182 52 64 89 141 149 312 47 133 49 138 75 135 25 -3 26 -2
12 24 -13 24 -12 31 9 73 12 26 27 66 33 89 9 32 27 55 83 104 39 35 94 84
123 111 29 26 56 47 62 47 5 0 43 37 84 81 168 184 200 214 255 227 29 8 62
24 75 38 24 26 40 29 67 14 80 -45 403 -149 482 -155 19 -2 80 -17 135 -35 55
-17 120 -33 145 -35 25 -2 62 -11 82 -19 21 -9 46 -16 57 -16 11 0 26 -7 35
-15 8 -8 19 -15 24 -15 5 0 43 -16 85 -35 42 -19 114 -44 161 -55 46 -11 119
-36 163 -56 96 -44 213 -84 246 -84 18 0 28 9 42 40 10 22 23 40 29 40 21 0
136 -59 141 -72 3 -7 9 -104 13 -214 9 -196 10 -203 40 -268 17 -36 45 -86 62
-111 17 -25 28 -49 25 -55 -3 -5 -1 -17 4 -27 87 -164 165 -348 157 -369 -4
-9 1 -28 10 -42 12 -18 13 -27 6 -30 -7 -2 -12 -19 -12 -38 0 -20 -4 -33 -9
-29 -5 3 -15 -1 -23 -8 -7 -8 -19 -12 -26 -9 -6 2 -12 -3 -12 -11 0 -9 -6 -18
-12 -20 -10 -4 -10 -8 1 -15 11 -8 10 -12 -6 -21 -27 -14 -36 -40 -21 -59 11
-12 9 -17 -10 -30 -18 -12 -22 -24 -22 -68 0 -49 -2 -54 -22 -54 -20 0 -19 -3
15 -38 20 -21 37 -42 37 -47 1 -10 96 -75 146 -102 64 -32 155 -56 199 -50 38
6 46 3 62 -16 29 -37 143 -112 203 -134 109 -40 295 -46 387 -11 98 36 163
118 163 203 0 34 -7 46 -53 90 -32 31 -75 60 -110 74 -52 21 -58 27 -54 48 4
22 2 24 -20 18 -17 -4 -23 -2 -18 6 4 6 11 27 15 45 8 33 7 34 -22 34 -16 0
-38 -4 -48 -10 -16 -8 -21 -1 -46 56 -20 49 -35 69 -58 81 -17 8 -40 23 -51
33 -11 10 -33 20 -50 22 -25 2 -35 13 -62 63 -18 33 -33 68 -33 77 0 9 -10 25
-23 35 -47 37 -75 153 -102 422 -9 84 -27 212 -40 283 -14 72 -25 144 -25 160
l0 30 36 -21 c66 -39 354 -263 372 -290 30 -44 21 -85 -29 -130 -24 -22 -38
-40 -31 -41 17 0 15 -20 -5 -42 -15 -17 -15 -18 6 -18 23 0 23 -1 8 -124 -3
-26 70 -63 148 -76 81 -13 284 -13 323 1 23 8 45 8 84 -1 29 -7 118 -14 197
-16 l145 -3 47 -64 c59 -78 180 -194 255 -244 l56 -37 -6 -55 c-9 -81 -43
-518 -57 -721 -16 -238 -17 -607 -1 -642 28 -67 60 -21 157 227 86 223 159
395 166 395 3 0 13 -24 24 -52 37 -106 126 -303 183 -407 32 -58 67 -131 77
-161 24 -74 98 -258 130 -320 14 -27 23 -50 21 -50 -8 0 -97 141 -146 233 -28
52 -64 130 -80 173 l-30 79 6 -65 c27 -324 71 -554 152 -793 43 -128 34 -122
231 -178 150 -43 306 -115 390 -179 l54 -42 21 21 20 21 -41 42 c-49 52 -57
74 -48 144 l6 53 41 -29 c23 -17 45 -30 50 -30 13 0 -18 67 -55 119 -27 39
-31 52 -27 86 l5 39 19 -29 c10 -17 57 -81 104 -143 53 -71 81 -117 75 -123
-6 -6 -16 -2 -28 11 -20 22 -55 27 -55 8 0 -7 -9 -24 -19 -37 l-18 -24 -6 32
c-6 29 -31 51 -43 38 -3 -3 9 -31 27 -62 30 -54 31 -57 11 -51 -34 11 -26 1
29 -40 28 -20 107 -103 174 -183 l124 -146 -30 -30 c-16 -17 -29 -35 -29 -39
0 -5 18 -38 41 -74 23 -35 49 -88 59 -116 10 -28 28 -72 39 -98 24 -52 30 -55
213 -97 81 -19 93 -25 190 -101 119 -93 307 -228 362 -261 l38 -22 -7 23 c-8
24 1 19 105 -68 3 -2 -11 -1 -30 3 -32 6 -29 3 30 -36 133 -87 382 -224 600
-332 124 -60 239 -120 255 -133 93 -69 293 -146 580 -225 124 -34 185 -55 195
-68 8 -11 40 -66 70 -123 68 -128 150 -218 198 -218 42 0 85 46 140 149 24 45
46 81 50 81 4 0 68 -11 142 -24 245 -44 532 -77 790 -92 l125 -7 37 -43 c124
-140 354 -212 633 -200 156 6 257 23 474 77 l163 41 42 -31 c173 -129 386
-247 486 -270 72 -17 170 -13 216 8 133 60 210 246 248 595 9 77 14 141 12
143 -2 2 -48 -5 -102 -16 -171 -34 -193 -32 -64 4 262 75 455 151 549 218 25
18 107 62 181 97 235 111 633 330 715 395 19 15 19 15 -10 9 -34 -7 -32 -5 39
52 44 35 48 36 41 15 -8 -27 -13 -29 95 43 115 76 292 210 425 321 121 100
464 435 589 575 l67 75 -60 -83 c-78 -108 -166 -249 -207 -336 l-33 -68 19
-52 c21 -56 87 -126 118 -126 10 0 24 10 30 23 10 20 10 19 5 -9 -7 -42 12
-52 29 -14 15 34 28 39 28 12 0 -36 62 -142 103 -178 23 -20 73 -51 111 -70
66 -32 105 -42 226 -61 l54 -8 11 -56 c7 -30 14 -63 18 -72 9 -24 43 -21 81 8
40 30 44 31 48 4 2 -17 27 -32 113 -68 380 -162 746 -399 1072 -695 46 -41 78
-63 88 -60 9 4 15 1 15 -7 0 -8 8 -5 23 8 45 41 46 32 5 -43 -35 -64 -42 -88
-46 -149 l-4 -72 82 -33 c107 -43 226 -115 306 -185 130 -115 282 -357 268
-429 -8 -47 2 -74 38 -92 34 -17 47 -12 28 11 -16 20 -6 19 14 -1 28 -27 18
-35 -36 -29 l-53 6 54 -50 55 -51 28 27 c30 29 36 49 16 56 -9 3 -3 16 18 38
73 81 91 119 56 119 -11 0 -27 9 -37 20 -22 24 -18 24 51 4 31 -9 62 -13 70
-10 12 5 12 2 3 -16 -29 -54 86 -66 190 -19 44 20 71 27 85 22 12 -5 34 -34
51 -67 30 -59 30 -60 62 -51 47 14 65 4 53 -28 -15 -38 -4 -48 47 -42 52 6 73
21 55 39 -20 20 -14 45 19 72 42 35 68 35 61 -2 l-4 -27 22 21 c23 23 37 87
26 128 -15 59 -100 126 -179 141 -43 8 -44 11 -17 107 23 82 25 140 9 188 -11
29 -15 32 -43 27 -17 -3 -40 -9 -50 -13 -35 -13 -8 15 68 71 87 65 151 129
142 144 -4 6 -33 31 -66 56 -57 44 -60 45 -132 45 -156 0 -317 69 -436 187
-40 40 -78 73 -83 73 -6 0 -24 9 -40 21 -29 20 -29 21 -12 51 17 29 17 30 -2
44 -11 9 -32 14 -47 11 -21 -3 -35 4 -59 29 -30 31 -31 33 -15 55 9 13 16 35
16 50 0 22 -5 28 -33 33 -51 10 -129 -20 -225 -87 -36 -24 -42 -25 -33 -10 5
11 8 36 4 56 -5 31 -19 47 -94 108 -320 255 -605 589 -818 958 -55 96 -59 106
-46 125 37 52 2 93 -88 103 -89 10 -99 20 -101 94 -2 70 -18 109 -73 176 -39
49 -132 118 -213 158 -61 31 -72 42 -64 68 10 32 -7 57 -66 97 -32 22 -60 44
-62 50 -4 14 -74 -11 -155 -56 -89 -49 -202 -142 -313 -254 -75 -77 -108 -102
-158 -124 -35 -15 -66 -26 -69 -23 -2 3 22 49 55 104 87 144 96 163 78 163
-11 0 -7 14 17 52 l32 51 5 -113 5 -114 79 85 c257 276 461 597 570 899 20 58
75 179 121 270 94 186 175 385 232 570 l38 125 7 -55 c3 -30 6 -109 7 -175 l1
-121 53 -31 c116 -71 201 -83 255 -38 31 26 66 97 77 158 4 20 8 37 9 37 2 0
63 -20 137 -44 130 -43 393 -106 441 -106 22 0 28 12 71 148 26 81 54 173 63
205 15 54 20 60 87 108 40 28 160 100 267 161 366 209 510 319 617 473 29 42
236 141 628 301 385 157 378 154 407 127 20 -18 36 -21 113 -22 107 0 184 -19
281 -66 92 -45 160 -96 314 -235 69 -62 150 -132 181 -155 113 -88 246 -145
334 -145 106 0 235 73 367 207 95 96 138 153 236 313 124 205 172 271 244 344
49 49 68 75 68 95 0 53 11 70 45 77 44 8 85 -7 167 -59 l68 -43 -65 -42 c-76
-50 -128 -109 -151 -168 -21 -56 -13 -101 30 -157 l34 -44 -47 -23 -46 -22 37
-19 c25 -13 40 -29 44 -47 10 -42 17 -47 26 -21 l9 24 23 -28 c12 -15 42 -68
66 -117 24 -50 49 -90 56 -90 6 0 27 7 47 15 l35 14 7 -82 c4 -45 10 -100 13
-121 l7 -39 25 35 24 36 50 -44 c27 -25 62 -54 78 -65 l28 -20 1 68 c0 37 4
88 8 113 6 42 7 44 19 23 7 -13 29 -34 49 -48 l37 -25 38 37 c21 21 43 52 50
69 11 32 12 32 68 27 l57 -5 48 148 c26 82 69 204 96 272 49 123 49 123 31
150 -10 15 -29 52 -41 82 -53 126 -104 210 -156 259 l-54 48 16 44 c18 52 20
184 3 254 -6 27 -24 77 -40 110 -85 175 -242 286 -428 302 -44 4 -89 14 -107
24 -48 28 -96 32 -164 15 -139 -36 -248 -140 -270 -259 l-8 -42 -11 40 c-7 22
-12 52 -12 66 0 30 -58 101 -109 133 -54 34 -137 62 -284 97 -73 18 -152 41
-177 52 l-45 19 34 15 c36 15 119 25 337 42 143 11 206 5 293 -28 30 -11 57
-19 59 -16 8 8 -10 63 -32 96 l-24 34 95 12 c53 7 108 20 125 30 40 23 70 64
69 94 0 13 -1 33 -1 44 -1 11 2 43 6 72 6 46 4 54 -18 76 -13 13 -31 26 -38
29 -12 4 -12 11 2 46 l16 42 -118 0 c-124 0 -160 8 -197 42 l-21 20 -56 -37
c-51 -34 -59 -36 -87 -26 -50 17 -59 14 -78 -32 -10 -23 -25 -48 -33 -54 -8
-7 -83 -28 -168 -48 -396 -93 -599 -183 -769 -341 -58 -53 -61 -59 -61 -103 0
-75 18 -119 70 -173 27 -28 47 -54 45 -58 -8 -13 -155 -49 -226 -56 -94 -9
-102 -3 -117 96 -19 130 -82 299 -205 550 -63 129 -132 283 -152 342 -32 91
-44 114 -85 155 -26 26 -51 56 -56 66 -14 25 -204 38 -393 25 -135 -8 -245
-25 -718 -108 -185 -32 -401 -52 -461 -43 -20 3 -52 19 -71 35 -18 16 -52 38
-75 50 -31 15 -50 35 -76 80 -19 34 -60 84 -91 112 -52 47 -57 55 -67 115 -17
94 -47 148 -101 182 -36 24 -52 28 -81 23 -46 -9 -80 -26 -109 -58 l-24 -25
-73 68 c-41 38 -120 100 -176 138 -108 74 -298 187 -302 181 -1 -1 -19 -39
-40 -83 -30 -62 -57 -97 -118 -158 -43 -43 -83 -77 -89 -75 -13 4 -76 125 -84
161 -7 35 -20 28 -29 -15 l-7 -33 -14 25 c-8 14 -19 46 -25 71 -13 53 -41 89
-70 89 -14 0 -20 -7 -20 -23 0 -32 -22 -59 -42 -52 -9 4 -23 21 -31 38 -32 71
-79 198 -75 202 2 2 46 -9 97 -26 51 -16 113 -32 137 -36 l44 -6 -66 149 c-36
82 -88 203 -117 269 -132 310 -302 610 -416 735 l-50 55 -1 -52 c0 -59 -14
-71 -24 -21 -3 17 -11 37 -17 45 -10 11 -14 10 -24 -4 -13 -17 -14 -17 -35 2
-11 10 -46 62 -78 114 -57 96 -139 191 -165 191 -10 0 -13 -13 -10 -57 l4 -58
-26 45 c-15 25 -41 63 -59 85 -18 22 -40 52 -50 66 l-17 27 77 -15 c43 -8 99
-23 125 -33 l49 -18 -12 22 c-19 36 -179 279 -208 316 l-28 35 15 58 c48 189
-114 364 -472 510 -164 68 -518 169 -664 191 -43 6 -66 26 -31 26 14 0 32 5
40 10 13 9 13 11 0 20 -13 9 -13 11 0 20 8 5 27 10 43 10 29 0 33 10 16 41
-10 19 -9 20 13 9 13 -7 34 -22 48 -34 l24 -21 -25 35 c-38 51 -151 144 -254
208 -165 102 -556 304 -568 294 -7 -5 -25 -13 -42 -16 -27 -6 -34 -1 -80 55
-76 93 -225 230 -295 271 -83 49 -151 64 -205 46 -39 -13 -44 -12 -147 30
-166 67 -281 93 -435 99 -97 4 -130 9 -127 18 9 23 -21 33 -113 37 l-91 4 24
-35 c32 -47 30 -54 -8 -47 -18 3 -116 12 -218 21 -102 9 -195 18 -207 20 -19
4 -21 1 -20 -22 2 -27 0 -28 -38 -26 -22 2 -60 6 -85 9 l-45 6 28 20 c34 25
34 51 1 77 -14 11 -23 25 -19 31 4 6 23 -3 49 -24 38 -32 43 -34 53 -17 6 10
35 23 67 30 31 7 56 17 56 22 0 13 -29 18 -168 28 -68 5 -126 11 -129 14 -7 7
35 88 86 167 38 57 42 70 37 105 -17 108 -17 234 -2 327 30 184 15 279 -52
326 l-30 22 -7 137 c-12 229 -37 315 -134 456 -46 67 -49 75 -44 117 3 25 14
54 23 65 26 28 176 419 206 534 13 53 30 153 37 222 10 94 18 134 34 160 31
50 91 199 109 271 10 41 18 142 24 288 8 244 16 284 69 351 l29 35 5 310 c4
261 9 338 31 499 24 169 26 208 20 355 l-6 166 135 128 c198 186 290 302 363
455 35 73 38 101 10 101 -9 0 -18 12 -21 28 -11 51 -43 107 -104 183 -33 42
-71 94 -83 116 -13 22 -84 98 -158 169 -74 70 -137 137 -138 149 -6 34 -23 46
-130 96 -96 45 -105 52 -119 89 -15 37 -19 40 -54 40 -20 0 -61 11 -91 25 -63
30 -99 31 -153 6z m-1047 -6566 c-3 -3 -21 -10 -39 -15 l-34 -9 29 25 c20 18
32 22 39 15 6 -6 8 -13 5 -16z m1297 -241 c33 -14 77 -26 97 -27 39 -2 43 -5
30 -23 -21 -33 -92 -44 -150 -23 -25 8 -33 18 -38 46 -7 35 -7 35 -48 30 -22
-3 -50 -1 -61 3 -19 8 -19 8 5 19 33 13 90 5 165 -25z m-2684 -60 c10 -13 10
-17 -2 -25 -8 -5 -18 -9 -24 -9 -5 0 -43 -6 -82 -14 -42 -8 -73 -10 -73 -4 0
12 120 68 146 68 12 0 27 -7 35 -16z m4009 -5 c-7 -11 -14 -18 -17 -15 -3 3 0
12 7 21 18 21 23 19 10 -6z m-3016 -25 c-12 -48 -68 -133 -88 -134 -10 0 -33
16 -51 36 -19 21 -44 37 -58 38 -20 1 -22 4 -14 17 23 36 101 66 180 68 35 1
37 0 31 -25z m2269 -137 c22 -12 45 -34 53 -49 19 -37 18 -39 -11 -26 -29 13
-78 -4 -100 -35 -20 -28 -42 -15 -65 38 -16 37 -24 45 -45 45 -36 0 -28 20 16
43 41 21 95 15 152 -16z m-1863 -137 c11 -6 24 -19 30 -30 9 -18 8 -18 -20 -8
-48 16 -96 2 -142 -44 -39 -39 -42 -40 -55 -23 -19 26 -17 33 16 64 46 43 130
63 171 41z m3325 -58 c-3 -3 -11 0 -18 7 -9 10 -8 11 6 5 10 -3 15 -9 12 -12z
m-4625 -123 c0 -37 16 -44 75 -31 l45 10 0 -30 c0 -16 -7 -42 -14 -57 -15 -28
-16 -28 -93 -24 -122 6 -123 7 -123 53 0 41 3 45 65 94 35 29 45 25 45 -15z
m3570 -278 c31 -22 40 -71 13 -71 -10 0 -27 7 -37 15 -30 22 -52 18 -75 -14
-30 -42 -58 -46 -66 -10 -4 16 -13 33 -22 37 -12 7 -13 13 -4 31 10 18 17 20
51 15 38 -6 40 -5 40 20 l0 26 38 -15 c20 -9 48 -24 62 -34z m-3165 -137 c-20
-15 -20 -15 -1 -30 11 -8 34 -14 52 -14 32 0 33 -1 23 -30 -15 -41 -64 -80
-101 -80 -37 0 -88 48 -88 82 0 38 62 87 110 87 24 0 25 0 5 -15z m1191 -95
c52 -13 120 -71 108 -90 -5 -9 -11 -5 -18 12 -5 13 -11 26 -13 28 -2 3 -22
-14 -46 -37 -44 -43 -82 -62 -122 -62 -31 0 -54 42 -62 111 l-6 49 57 0 c32 0
77 -5 102 -11z m-3281 -39 c-21 -22 -31 -27 -36 -18 -6 9 3 19 24 30 44 24 45
22 12 -12z m4335 -28 c29 -29 49 -105 36 -137 -7 -20 -106 -66 -156 -72 -44
-6 -95 11 -104 33 -9 24 14 111 36 140 54 68 139 85 188 36z m-3384 -128 c39
-21 39 -21 42 -86 l3 -65 -48 -20 c-61 -26 -123 -46 -128 -41 -2 2 1 22 8 45
8 32 8 45 -2 57 -15 18 -44 21 -72 6 -33 -18 -25 45 13 92 31 40 32 40 88 36
31 -2 74 -13 96 -24z m5352 -125 c38 -16 62 -47 62 -80 0 -5 -36 -9 -80 -9
l-80 0 0 60 0 60 28 -6 c15 -4 46 -15 70 -25z m-6681 -96 c-9 -9 -19 -14 -23
-11 -10 10 6 28 24 28 15 0 15 -1 -1 -17z m5942 -28 c26 -13 61 -67 61 -94 0
-7 -34 -11 -100 -11 l-100 0 0 46 c0 33 5 51 18 60 23 18 86 17 121 -1z
m-5989 -15 c0 -5 -2 -10 -4 -10 -3 0 -8 5 -11 10 -3 6 -1 10 4 10 6 0 11 -4
11 -10z m3103 -120 c43 -13 45 -25 17 -88 -15 -33 -29 -47 -62 -62 -24 -11
-50 -20 -58 -20 -8 0 -32 21 -52 46 -45 56 -51 103 -15 129 24 18 99 16 170
-5z m-1063 -153 c60 -24 64 -37 34 -95 -7 -15 -14 -35 -14 -46 0 -17 -7 -18
-74 -14 -110 7 -167 48 -181 130 -8 43 -3 45 110 46 51 1 85 -5 125 -21z
m2007 -45 c36 -16 39 -20 30 -40 -6 -13 -25 -26 -47 -32 -56 -15 -70 -6 -70
46 0 40 2 44 24 44 13 0 42 -8 63 -18z m1315 -98 c33 -17 48 -43 48 -81 l0
-29 -132 -2 c-154 -3 -180 5 -163 54 26 71 159 102 247 58z m-5822 -91 c0 -5
-18 -28 -40 -53 -36 -40 -40 -42 -34 -18 3 14 1 35 -5 46 -10 19 -8 21 26 25
21 2 41 4 46 5 4 1 7 -1 7 -5z m7543 -105 c39 -67 49 -114 32 -154 l-14 -34
-43 16 c-72 25 -124 61 -142 98 -9 19 -16 36 -16 39 0 10 124 77 142 77 9 0
27 -19 41 -42z m-6096 -19 c29 -11 50 -45 58 -95 6 -41 5 -42 -27 -52 -97 -30
-188 -22 -243 22 l-29 23 24 60 24 61 85 -6 c47 -2 96 -8 108 -13z m5402 -277
c66 -45 94 -98 75 -146 -11 -29 -53 -19 -75 19 -22 37 -48 50 -79 40 -16 -5
-20 -2 -20 19 0 32 30 96 45 96 7 0 31 -13 54 -28z m-2954 -22 c38 -11 87 -20
107 -20 39 0 42 -4 38 -49 -5 -61 -65 -101 -150 -101 -62 0 -104 20 -130 63
-30 48 -26 93 8 111 36 20 45 20 127 -4z m-1046 -95 c23 -8 64 -17 91 -21 28
-4 50 -9 50 -13 0 -26 -25 -86 -46 -111 -23 -27 -32 -30 -80 -30 -65 0 -97 24
-113 86 -18 71 -17 77 9 91 32 16 39 16 89 -2z m1697 -90 c71 -28 72 -29 78
-72 3 -24 3 -85 -1 -135 l-6 -90 -111 4 c-127 5 -152 15 -166 69 -8 30 -5 51
20 127 16 50 30 101 30 113 0 20 4 21 43 17 23 -3 74 -18 113 -33z m652 -6
l62 -21 0 -44 c0 -52 -23 -114 -42 -114 -40 1 -44 19 -22 104 6 24 4 26 -25
26 -39 0 -81 -39 -81 -75 0 -23 -4 -25 -40 -25 -26 0 -42 6 -48 17 -14 23 -42
9 -42 -22 0 -28 -12 -32 -29 -11 -9 11 -6 28 14 77 15 34 24 70 22 80 -6 21
11 26 104 28 43 1 86 -6 127 -20z m-3212 -55 c22 -15 25 -23 20 -52 -7 -47
-48 -107 -94 -137 -90 -59 -138 -36 -108 52 18 53 21 103 6 103 -6 0 -23 -20
-39 -45 -29 -46 -41 -44 -41 9 0 74 176 122 256 70z m1260 -207 c13 -16 24
-41 24 -58 0 -25 -4 -29 -28 -29 -44 0 -76 42 -96 122 l-6 26 41 -16 c22 -8
51 -29 65 -45z m834 23 c0 -6 23 -32 50 -59 34 -33 50 -57 50 -74 0 -24 1 -25
37 -15 20 5 55 7 78 3 40 -6 43 -8 54 -48 19 -77 60 -101 204 -117 50 -6 109
-16 129 -21 43 -11 98 -54 98 -76 0 -22 -102 -9 -213 28 -85 28 -89 28 -120
13 -66 -35 -100 -71 -182 -194 -113 -169 -110 -167 -190 -153 -166 28 -275
121 -315 267 l-17 61 -223 0 -224 0 -24 -46 c-55 -107 -40 -169 73 -304 41
-50 85 -114 97 -142 23 -52 23 -53 68 -53 90 0 156 51 244 188 42 65 86 114
86 96 0 -5 5 -49 10 -99 10 -98 0 -197 -26 -246 -8 -16 -28 -44 -45 -63 l-30
-35 -35 16 c-32 16 -40 16 -112 1 -66 -14 -81 -15 -104 -3 -25 12 -28 12 -28
-4 0 -33 34 -64 105 -97 39 -18 77 -40 84 -48 11 -13 20 -12 69 11 206 93 294
115 371 94 l44 -12 -69 -51 c-101 -74 -166 -102 -220 -94 l-44 6 21 -30 c22
-29 22 -30 4 -69 -14 -32 -15 -46 -7 -70 11 -30 10 -31 -28 -42 -21 -6 -53 -9
-72 -5 -45 9 -178 83 -178 100 0 8 20 30 45 50 50 41 57 69 23 87 -13 7 -49
34 -81 61 -80 66 -130 90 -204 96 l-62 5 -16 46 c-8 25 -48 96 -89 156 -40 61
-79 128 -86 149 -30 94 21 253 103 320 65 52 134 82 299 131 191 55 232 69
285 101 73 43 50 86 -54 103 -83 13 -103 25 -103 61 l0 30 235 0 c155 0 235
-4 235 -10z m2150 -30 c35 -69 24 -120 -31 -139 -47 -16 -49 -15 -42 34 7 56
-9 60 -60 15 -52 -45 -96 -37 -116 21 -30 86 -2 108 136 109 l93 0 20 -40z
m-1090 -381 l52 -11 -7 -52 c-20 -144 -92 -277 -179 -331 -46 -28 -57 -30
-140 -30 -109 0 -110 -1 -120 -132 -9 -106 -26 -150 -61 -159 -48 -12 -135 7
-208 44 -76 40 -90 56 -57 67 42 13 146 124 258 275 174 233 244 300 342 326
58 16 59 16 120 3z m2152 -75 c36 -19 68 -83 68 -139 0 -64 -8 -70 -71 -51
-65 18 -118 61 -164 129 -31 46 -33 52 -18 61 51 28 130 28 185 0z m-3785 -26
c47 -20 63 -39 63 -75 l0 -33 -65 0 c-62 0 -65 1 -65 25 0 21 28 95 36 95 2 0
16 -5 31 -12z m-10632 -77 c-10 -39 -21 -44 -25 -11 -5 35 0 49 16 43 11 -4
14 -13 9 -32z m11668 12 c18 -9 50 -19 72 -22 l40 -6 -38 -34 c-23 -21 -37
-43 -37 -58 0 -20 -4 -23 -20 -18 -28 9 -69 9 -107 1 l-33 -8 0 47 c0 26 7 62
16 81 13 27 22 34 46 34 16 0 43 -8 61 -17z m-1860 -49 c21 -14 54 -28 73 -31
l34 -6 0 -74 c0 -68 -2 -74 -17 -67 -10 5 -41 9 -69 9 -57 0 -88 -19 -108 -67
-11 -26 -14 -27 -33 -13 -30 21 -36 62 -19 118 17 56 75 157 91 157 6 0 27
-12 48 -26z m-1017 -102 c18 -12 74 -118 74 -141 0 -18 -6 -21 -40 -21 -21 0
-62 -9 -90 -20 -63 -25 -90 -26 -90 -2 0 9 -9 34 -20 55 -11 20 -20 48 -20 62
0 22 2 24 19 13 17 -10 25 -7 60 25 40 36 81 47 107 29z m3855 -43 c82 -18
133 -86 95 -128 -9 -10 -16 -25 -16 -34 0 -21 -14 -22 -31 -1 -7 8 -26 22 -42
30 -25 14 -35 14 -91 0 -34 -9 -76 -16 -93 -16 l-31 0 15 48 c8 26 12 62 9 80
l-5 32 69 0 c38 0 92 -5 121 -11z m1099 -119 c27 -27 27 -118 1 -176 -23 -50
-37 -60 -58 -43 -13 11 -14 25 -8 79 4 36 8 86 9 113 1 38 4 47 18 47 10 0 27
-9 38 -20z m3395 -90 c16 -32 21 -60 6 -44 -10 11 -32 74 -26 74 3 0 11 -13
20 -30z m-11135 -287 c0 -32 -6 -78 -14 -103 l-13 -44 -31 54 c-36 62 -39 78
-17 86 8 4 15 12 15 20 0 13 37 44 52 44 5 0 8 -26 8 -57z m8175 -213 c180
-29 325 -183 342 -362 15 -165 -79 -329 -232 -404 -55 -27 -69 -29 -170 -29
-104 0 -114 2 -177 33 -84 41 -167 128 -199 209 -19 47 -23 77 -24 158 0 93 2
105 32 166 57 116 160 198 283 225 70 16 73 16 145 4z m2405 -424 l0 -353 -73
-5 c-158 -10 -286 -115 -304 -249 l-6 -39 192 0 191 0 0 -355 0 -355 -190 0
-190 0 0 -62 c0 -35 -5 -106 -10 -158 -51 -484 -420 -859 -904 -920 -44 -5
-104 -10 -133 -10 l-53 0 0 359 0 358 78 5 c123 7 216 68 269 176 23 47 28 73
31 154 l4 98 -81 0 -81 0 0 355 0 355 79 0 78 0 6 83 c26 337 229 640 534 799
156 81 292 116 456 117 l107 1 0 -354z m1655 24 c52 -185 75 -302 75 -394 0
-87 0 -88 23 -82 12 3 89 9 172 12 147 7 150 8 190 39 49 37 123 70 202 90
130 33 230 37 700 29 414 -6 463 -8 467 -23 17 -58 28 -171 41 -416 12 -236
34 -439 50 -464 2 -4 -41 -33 -96 -66 -98 -58 -283 -192 -429 -311 -121 -98
-259 -198 -355 -259 -68 -43 -95 -66 -110 -95 -27 -53 -83 -110 -179 -182
-131 -99 -197 -159 -466 -423 -273 -269 -308 -295 -406 -303 -28 -2 -68 1 -88
8 -33 11 -39 10 -67 -15 -41 -34 -95 -61 -139 -69 l-35 -6 -18 168 c-20 183
-62 478 -107 748 -27 167 -28 177 -15 270 28 196 38 414 31 649 -6 209 -23
396 -38 410 -3 3 -15 -20 -27 -52 -12 -32 -40 -92 -63 -133 -50 -91 -53 -87
-61 105 -4 104 -13 166 -32 240 -30 115 -56 275 -44 275 5 0 59 -56 121 -125
61 -68 113 -123 115 -121 2 1 -6 61 -16 132 -46 304 -55 396 -40 404 7 5 74
30 149 56 148 51 310 124 380 172 l45 31 21 -102 c12 -56 34 -145 49 -197z
m-7897 276 c56 -29 77 -73 61 -129 -8 -31 -10 -32 -64 -33 -85 -1 -146 -53
-88 -75 25 -9 26 -11 10 -21 -33 -18 -67 -1 -87 45 -23 49 -27 154 -7 180 33
43 122 60 175 33z m915 -47 c29 -13 47 -48 47 -88 0 -26 -3 -29 -49 -35 -32
-4 -70 -20 -111 -47 -34 -22 -64 -38 -67 -35 -9 9 9 46 43 87 19 23 39 61 45
85 10 39 15 44 40 44 15 0 39 -5 52 -11z m952 -40 c24 -6 61 -26 82 -45 l38
-33 -33 -1 c-20 0 -35 6 -38 15 -6 14 -8 14 -18 0 -10 -14 -142 -43 -151 -33
-1 1 6 27 18 56 22 57 28 60 102 41z m-6631 -354 c-24 -176 -44 -324 -44 -328
0 -5 23 16 51 47 41 45 55 55 74 50 16 -4 32 3 58 25 39 35 62 39 71 15 9 -25
-21 -53 -87 -82 -76 -33 -100 -77 -81 -150 6 -20 12 -23 53 -20 46 3 46 3 75
66 16 34 36 62 43 62 9 0 12 -7 9 -17 -2 -10 -7 -56 -11 -103 -3 -47 -8 -106
-11 -132 l-6 -46 -76 4 c-117 8 -120 9 -133 54 -15 49 -29 52 -29 6 0 -19 -4
-37 -9 -40 -15 -10 -140 31 -174 57 -104 79 -91 237 42 493 53 102 220 368
227 362 1 -2 -17 -147 -42 -323z m3648 265 l37 -39 -27 -19 c-15 -10 -35 -22
-44 -25 -10 -4 -18 -13 -18 -20 0 -19 -121 -90 -133 -78 -5 5 -7 25 -3 45 l7
35 35 -15 c30 -13 35 -13 40 0 3 8 1 23 -5 35 -19 35 -13 88 11 105 35 25 60
19 100 -24z m3981 -54 c72 -31 102 -100 73 -169 -19 -48 -38 -47 -92 3 -24 22
-47 40 -52 40 -5 0 -17 -9 -27 -20 -14 -16 -21 -17 -32 -8 -25 20 -43 66 -43
107 0 34 4 41 28 49 40 15 108 14 145 -2z m-1833 -23 c-1 -70 -82 -103 -165
-69 -19 8 -35 17 -35 20 0 15 86 40 193 55 4 1 7 -2 7 -6z m-3360 -377 l0
-353 -77 -7 c-99 -8 -167 -40 -227 -107 -71 -79 -78 -109 -86 -384 -7 -218
-10 -248 -34 -330 -55 -186 -143 -332 -279 -462 -96 -92 -166 -140 -283 -195
-112 -52 -246 -85 -383 -94 l-111 -7 0 360 0 360 73 5 c89 6 152 33 209 90 84
84 91 110 99 383 7 240 11 273 51 395 130 404 527 696 951 699 l97 1 0 -354z
m-5090 329 c0 -8 -7 -15 -15 -15 -26 0 -18 20 13 29 1 1 2 -6 2 -14z m7060
-124 c100 -26 241 -91 331 -152 149 -99 296 -283 366 -456 60 -147 73 -235 73
-505 l0 -238 -475 0 -475 0 0 -396 0 -397 -111 7 c-198 13 -372 70 -527 173
-212 141 -365 356 -428 602 -32 122 -43 341 -24 487 56 447 392 806 833 890
108 20 330 13 437 -15z m2630 -5 c52 -14 145 -51 205 -81 107 -54 243 -151
237 -170 -2 -6 -112 -125 -245 -267 l-242 -256 -35 28 c-63 49 -100 63 -175
64 -103 1 -167 -24 -236 -93 -93 -93 -118 -221 -67 -333 55 -120 143 -179 274
-186 96 -5 136 6 192 53 22 19 42 35 45 35 3 0 116 -118 252 -262 l247 -263
-39 -33 c-264 -227 -657 -309 -987 -205 -342 107 -603 380 -696 728 -28 104
-37 296 -20 402 52 325 245 598 534 754 88 47 163 74 276 100 124 28 348 21
480 -15z m1860 -1086 l0 -740 -357 2 -358 3 -3 738 -2 737 360 0 360 0 0 -740z
m-1512 -107 c2 -12 -2 -32 -8 -44 -12 -21 -12 -21 -47 12 l-34 34 28 12 c38
17 57 12 61 -14z m-12641 9 c6 -4 14 -23 18 -42 6 -33 4 -36 -42 -65 l-48 -30
39 -3 38 -3 -7 -75 c-6 -66 -13 -85 -61 -166 -60 -101 -80 -157 -89 -238 -12
-106 -7 -100 -72 -84 -173 44 -256 82 -388 176 -49 35 -106 74 -125 86 -40 24
-145 140 -136 149 3 4 6 1 6 -5 0 -7 13 -12 29 -12 16 0 42 -7 58 -15 15 -8
41 -17 57 -20 22 -5 27 -10 23 -25 -5 -21 16 -32 58 -30 51 1 62 0 91 -6 29
-5 34 -3 55 35 25 44 34 50 43 25 7 -19 49 -12 113 19 l43 21 30 -29 30 -29
-6 62 c-7 62 -7 62 20 62 15 0 26 6 26 14 0 7 12 19 28 25 20 8 33 27 50 69
50 122 82 158 119 134z m21449 -421 c44 -11 92 -25 107 -32 l26 -12 -26 -51
c-34 -68 -125 -205 -155 -233 -23 -22 -25 -22 -83 -7 -111 29 -261 118 -400
238 l-40 34 25 21 c26 21 121 56 175 65 69 10 292 -3 371 -23z m-8246 -199 c0
-104 -13 -132 -63 -132 -79 0 -127 30 -127 77 0 15 9 18 54 20 30 1 68 9 85
18 28 14 31 20 31 66 0 31 4 48 10 44 6 -3 10 -45 10 -93z m-2358 38 c10 -14
21 -42 25 -63 l6 -37 -82 0 c-77 0 -81 1 -81 23 0 12 9 41 20 65 18 41 22 43
56 40 26 -2 43 -11 56 -28z m-847 -222 c28 -5 88 -28 135 -50 68 -33 101 -57
166 -122 124 -124 184 -267 184 -441 0 -158 -54 -280 -222 -502 l-108 -143
265 0 265 0 0 -165 0 -165 -595 0 c-327 0 -595 2 -595 3 0 2 135 181 301 398
165 217 312 413 326 437 34 58 43 158 19 230 -22 65 -93 145 -158 178 -29 15
-75 27 -114 31 l-64 6 0 157 c0 86 3 160 7 164 9 8 116 0 188 -16z m2825 -968
l0 -620 -165 0 -165 0 0 620 0 620 165 0 165 0 0 -620z m1327 613 c-128 -230
-647 -1193 -647 -1200 0 -5 9 -18 20 -28 26 -24 25 -55 -2 -90 -39 -50 -132
-70 -206 -44 -28 10 -31 14 -25 42 3 18 14 54 24 80 11 26 19 52 19 57 0 5
-19 19 -42 31 -24 12 -45 23 -47 25 -2 1 101 194 228 428 127 234 231 428 231
431 0 3 -101 5 -225 5 l-225 0 0 135 0 135 451 0 c247 0 448 -3 446 -7z
m-2468 -55 c142 -43 256 -128 339 -253 71 -105 93 -176 99 -315 4 -87 1 -132
-11 -180 -52 -208 -206 -375 -411 -447 -70 -24 -95 -27 -200 -27 -105 0 -130
3 -198 27 -208 73 -361 238 -413 447 -12 48 -15 94 -12 180 4 98 9 126 35 192
123 310 456 473 772 376z m-2344 -281 c8 -13 20 -38 26 -57 6 -19 25 -49 41
-66 34 -37 32 -63 -8 -89 -14 -9 -28 -24 -32 -34 -7 -18 -9 -18 -69 0 -71 22
-118 68 -129 125 -10 56 3 69 72 69 l59 0 3 38 c4 42 15 47 37 14z m-840 -202
c59 -28 85 -67 85 -124 0 -51 -23 -65 -94 -59 -38 3 -66 14 -108 43 l-58 38 0
70 0 70 63 -7 c34 -4 85 -18 112 -31z m8325 -484 c27 -140 26 -174 -7 -218
-27 -36 -144 -135 -150 -129 -7 7 67 180 93 217 35 51 58 130 42 141 -7 5 -21
6 -31 4 -43 -10 -47 4 -14 54 18 27 35 45 40 41 4 -4 16 -53 27 -110z m-10912
-28 c11 -29 18 -53 14 -53 -11 1 -45 22 -78 48 l-29 24 29 25 c33 28 35 26 64
-44z m10793 4 l-23 -22 17 28 c10 15 20 25 23 22 3 -3 -5 -16 -17 -28z
m-10972 -77 l2 -45 15 34 c8 19 18 30 23 25 8 -9 55 -120 91 -212 l20 -53 -46
33 c-62 44 -145 138 -140 158 2 8 8 47 12 85 5 54 9 64 15 45 4 -14 8 -45 8
-70z m4148 -265 c65 -27 103 -78 117 -158 7 -36 6 -38 -31 -54 -51 -21 -176
-21 -227 1 l-39 16 6 62 c6 70 27 105 78 130 42 22 50 22 96 3z m2463 -69 c0
-91 -68 -156 -165 -156 -76 0 -115 43 -115 124 0 31 1 31 53 31 40 1 66 8 102
30 57 33 107 46 117 31 4 -6 8 -33 8 -60z m-3339 -9 c65 -43 104 -164 65 -196
-56 -47 -222 -8 -265 61 -19 30 23 106 75 135 50 29 82 29 125 0z m2090 -152
c11 -16 19 -46 19 -66 0 -35 -1 -35 -68 -57 -38 -12 -83 -22 -101 -22 -59 0
-121 47 -121 91 0 28 11 42 100 117 l35 30 59 -31 c33 -18 67 -45 77 -62z
m2927 -325 c18 -11 46 -20 63 -20 30 0 31 -1 25 -32 -18 -92 -81 -158 -152
-158 -43 0 -58 21 -51 73 6 53 52 157 69 157 7 0 28 -9 46 -20z m-5571 -75
c51 -22 70 -40 89 -91 39 -101 -25 -135 -187 -98 l-69 16 0 56 c1 31 7 68 14
81 27 49 87 63 153 36z m4571 -206 c22 -8 22 -10 7 -46 -9 -20 -23 -46 -33
-56 -60 -67 -212 -78 -212 -16 0 24 33 91 54 108 35 29 119 34 184 10z m-1173
-123 c19 -15 38 -38 41 -53 10 -38 -18 -87 -62 -108 -68 -32 -186 -17 -199 26
-8 23 2 74 21 111 33 63 131 75 199 24z m-1131 -6 c26 -10 28 -14 23 -52 -12
-86 -75 -133 -180 -133 -77 0 -97 14 -97 67 0 104 132 165 254 118z m-1164
-88 c43 -23 71 -77 73 -139 l2 -48 -90 1 c-101 1 -152 14 -184 48 -19 20 -20
27 -11 52 33 87 132 127 210 86z m5080 -77 c26 -14 28 -17 19 -47 -22 -80
-104 -158 -165 -158 -85 0 -103 34 -63 118 42 86 135 125 209 87z m1290 -16
c0 -11 -4 -18 -10 -14 -5 3 -7 12 -3 20 7 21 13 19 13 -6z m30 -182 c0 -2 -10
-12 -22 -23 l-23 -19 19 23 c18 21 26 27 26 19z m-2358 -64 c22 -15 51 -35 64
-43 29 -18 29 -23 3 -77 -40 -82 -157 -122 -246 -84 -46 19 -45 62 2 127 19
27 43 65 52 85 16 34 19 35 51 28 18 -4 52 -20 74 -36z m-4472 -171 c31 -31
46 -86 36 -127 -6 -24 -10 -25 -82 -25 -42 0 -89 6 -109 14 -31 13 -35 19 -35
52 0 29 8 44 39 75 33 33 45 39 81 39 32 0 48 -6 70 -28z m3398 -59 c50 -17
72 -30 72 -42 0 -31 -61 -121 -98 -146 -21 -14 -58 -28 -84 -31 -41 -6 -47 -4
-53 15 -4 12 -18 27 -31 33 -40 18 -31 53 26 106 34 32 51 56 52 74 3 32 0 32
116 -9z m-1106 -100 c31 -19 68 -79 68 -111 0 -61 -155 -106 -230 -67 -26 13
-30 21 -30 56 0 51 21 102 51 123 31 21 103 21 141 -1z m-1166 -59 c78 -52 63
-148 -28 -183 -46 -17 -141 -23 -158 -9 -88 72 -54 179 65 209 38 10 91 2 121
-17z m3734 -80 c0 -3 -14 -33 -32 -66 -36 -68 -79 -101 -148 -117 -76 -18 -80
-16 -80 32 0 100 69 157 192 157 37 0 68 -3 68 -6z m2864 -46 c-10 -13 -53
-59 -96 -104 -49 -51 -85 -100 -101 -135 -13 -31 -32 -59 -41 -62 -15 -6 -15
-3 -1 29 23 56 52 93 154 197 91 93 126 123 85 75z m-667 -118 c63 -22 105
-50 133 -90 l21 -30 -28 -35 c-15 -19 -35 -35 -43 -35 -8 0 -54 9 -102 20 -87
19 -138 39 -170 68 -24 21 -23 73 3 106 20 26 25 27 78 20 31 -3 80 -14 108
-24z m-3156 -111 c50 -17 53 -23 30 -67 -37 -73 -106 -109 -216 -114 -59 -3
-60 -3 -63 26 -5 43 5 72 39 111 45 51 133 69 210 44z m-1273 -129 c29 -22 48
-23 96 -4 13 5 16 -2 16 -36 0 -106 -60 -150 -207 -150 -83 0 -92 2 -98 20
-11 35 5 76 45 115 21 21 44 50 50 65 10 25 15 27 40 20 16 -4 42 -18 58 -30z
m-2149 -35 c53 -24 59 -30 52 -49 -14 -39 -68 -66 -130 -66 -74 0 -145 34
-148 70 -8 79 101 101 226 45z m6859 -30 c-41 -66 -55 -81 -65 -72 -7 8 13 66
37 105 14 22 27 32 44 32 25 0 25 0 -16 -65z m467 -166 c318 -191 505 -308
494 -309 -3 0 -140 65 -305 143 -313 151 -501 233 -553 243 -17 4 -31 8 -31
10 0 12 63 113 68 110 4 -2 151 -90 327 -197z m-6173 116 c33 -25 66 -45 74
-45 23 0 16 -54 -11 -84 -33 -35 -65 -46 -138 -46 -64 0 -131 23 -155 53 -20
23 -1 51 57 83 31 16 54 37 61 55 17 40 42 37 112 -16z m5648 -50 c10 -12 10
-15 -4 -15 -9 0 -16 7 -16 15 0 8 2 15 4 15 2 0 9 -7 16 -15z m-3105 -242
c-22 -51 -43 -73 -94 -95 -48 -22 -108 -18 -118 8 -9 25 18 72 52 88 29 14
109 32 158 35 16 1 16 -1 2 -36z m-3122 -55 c56 -24 71 -46 57 -82 -20 -54
-130 -73 -238 -41 -52 16 -66 30 -82 86 -7 24 -5 31 13 41 61 32 168 30 250
-4z m2076 -17 c13 -3 29 -14 35 -23 24 -38 -79 -118 -152 -118 -47 0 -95 25
-115 59 -25 42 -21 60 16 76 33 15 172 19 216 6z m-1046 -69 l48 -21 -16 -38
c-43 -107 -183 -144 -255 -68 -20 21 -25 37 -25 83 0 55 1 57 30 64 57 13 168
3 218 -20z m1683 -198 c-55 -51 -143 -99 -199 -109 -37 -7 -37 -7 -27 20 5 14
10 42 10 61 0 30 3 34 28 34 15 0 54 9 87 20 33 10 80 19 105 19 l45 0 -49
-45z m-2143 -114 c10 -38 -8 -74 -44 -92 -25 -13 -58 -18 -126 -18 l-93 0 0
49 c0 72 12 78 161 80 89 1 97 -1 102 -19z m1187 -30 c12 -6 20 -17 18 -23 -6
-18 -88 -57 -121 -57 -50 0 -67 16 -67 62 l0 41 74 -6 c41 -3 84 -11 96 -17z
m7080 -644 c0 -7 -9 -25 -21 -40 -20 -26 -20 -26 -1 -26 11 0 43 -11 71 -23
l50 -24 -30 -48 c-17 -27 -60 -78 -95 -113 -69 -69 -97 -77 -102 -29 -3 21 -8
27 -29 27 -20 0 -24 4 -20 20 7 27 -19 26 -34 -1 -8 -15 -14 -18 -22 -10 -6 6
-22 11 -36 12 -24 0 -25 1 -7 12 62 39 122 96 186 176 66 83 90 101 90 67z"/>
<path d="M13450 10739 c-117 -47 -194 -162 -192 -291 3 -193 209 -336 395
-272 63 21 140 92 173 160 114 233 -133 498 -376 403z"/>
<path d="M7310 22081 c0 -6 23 -32 52 -58 88 -81 105 -101 111 -133 7 -34 27
-41 27 -10 0 35 -37 96 -83 136 -54 47 -107 79 -107 65z"/>
<path d="M7550 22020 c0 -11 58 -50 74 -50 14 0 -16 30 -46 46 -17 9 -28 10
-28 4z"/>
<path d="M7530 21843 c5 -49 7 -51 37 -34 17 9 17 11 0 45 -25 53 -44 47 -37
-11z"/>
<path d="M7410 21760 l-35 -19 36 -1 c33 0 59 14 59 32 0 13 -23 8 -60 -12z"/>
<path d="M7391 21683 c-26 -17 -29 -23 -15 -23 19 0 305 -67 309 -72 29 -41
35 -59 35 -106 0 -59 19 -113 47 -133 23 -17 121 -408 130 -519 6 -71 10 -79
30 -59 8 8 18 6 37 -6 23 -15 26 -24 26 -75 0 -40 -5 -64 -19 -81 -10 -13 -16
-30 -13 -38 3 -8 0 -11 -6 -7 -12 7 -34 -26 -30 -45 5 -20 -48 -35 -80 -23
-25 10 -29 8 -39 -12 -10 -21 -7 -25 25 -41 52 -26 61 -45 38 -88 -15 -28 -16
-37 -7 -49 13 -16 6 -40 -9 -31 -11 7 -33 -32 -25 -45 3 -5 -4 -20 -16 -32
-12 -13 -19 -18 -15 -11 4 8 -6 14 -31 19 -64 12 -92 8 -117 -15 -20 -19 -33
-22 -73 -19 -47 3 -48 3 -48 -27 0 -26 9 -36 65 -72 42 -29 67 -40 74 -33 14
14 26 12 26 -5 0 -19 -41 -29 -91 -21 -36 6 -40 4 -49 -20 -6 -14 -10 -42 -10
-63 0 -53 -21 -71 -34 -29 -13 38 -36 49 -36 17 0 -18 -3 -20 -12 -11 -18 18
-27 14 -21 -10 5 -20 2 -19 -25 10 -39 41 -46 40 -39 -3 4 -26 2 -35 -8 -35
-8 0 -17 11 -21 25 -8 34 -34 32 -34 -2 l0 -27 -22 22 c-19 19 -20 24 -9 31
12 8 12 13 -3 35 -9 14 -21 26 -26 26 -13 0 -13 -13 0 -26 12 -12 0 -56 -15
-55 -6 0 -9 -7 -7 -15 2 -10 -5 -8 -22 7 -14 13 -23 25 -20 28 3 3 9 0 13 -7
6 -10 13 -8 32 7 13 11 18 20 11 21 -10 0 -11 13 -6 52 5 34 4 49 -3 45 -6 -4
-13 0 -17 8 -3 8 -13 15 -21 15 -9 0 -13 5 -10 10 3 6 -3 10 -13 10 -14 0 -21
9 -26 30 -3 17 -6 33 -7 38 -1 4 15 17 37 29 29 17 35 23 22 28 -11 5 -15 15
-11 36 2 17 -1 37 -8 45 -10 12 -8 22 8 52 31 56 35 91 22 188 -9 73 -16 91
-35 107 -16 12 -24 29 -24 49 0 35 -90 171 -176 266 -44 50 -62 62 -85 62 -47
0 -71 17 -59 40 9 16 7 20 -14 26 -14 3 -30 12 -37 20 -18 22 -29 6 -29 -41
l0 -44 -37 5 c-21 3 -51 10 -66 15 -19 6 -40 4 -65 -6 -20 -7 -55 -16 -77 -20
-81 -13 -143 -75 -191 -192 -30 -75 -33 -162 -5 -187 11 -10 23 -32 27 -50 3
-17 17 -51 29 -76 30 -60 193 -270 209 -270 6 0 30 -13 52 -29 63 -47 118 -56
237 -41 80 9 112 10 146 0 53 -14 93 -39 85 -52 -3 -5 2 -18 12 -29 19 -21 11
-40 -8 -21 -7 7 -17 12 -23 12 -5 0 11 -19 38 -43 45 -40 70 -96 40 -89 -7 1
-13 -2 -13 -8 0 -17 -18 -11 -25 9 -6 20 -45 36 -45 19 0 -5 -4 -7 -9 -3 -5 3
-12 -3 -14 -12 -4 -15 -6 -14 -12 5 -4 13 -13 21 -20 18 -7 -2 -17 6 -23 19
-11 24 -12 24 -52 10 -55 -19 -65 -26 -52 -34 7 -4 7 -12 2 -20 -6 -11 -13
-10 -35 8 -33 25 -45 27 -45 4 0 -12 -3 -14 -11 -6 -6 6 -30 8 -54 5 -32 -3
-52 0 -70 12 -31 20 -24 36 16 36 39 0 37 14 -7 35 -40 19 -69 13 -60 -11 4
-10 -5 -6 -25 10 -33 28 -44 31 -54 16 -4 -6 -11 -8 -16 -4 -5 3 -42 3 -82 -1
-62 -6 -75 -10 -83 -28 -12 -29 -58 -33 -128 -13 -66 20 -96 20 -96 2 0 -10
-25 -14 -102 -18 -109 -6 -171 -1 -163 12 7 11 -61 50 -86 50 -10 0 -19 -7
-19 -15 0 -7 -8 -18 -17 -24 -17 -9 -16 -11 5 -33 34 -37 26 -46 -10 -11 -18
17 -63 43 -100 58 -84 34 -99 49 -71 76 l20 20 76 -22 c78 -23 106 -21 71 6
-36 28 -200 104 -384 180 -102 41 -205 89 -230 105 -25 16 -71 43 -102 59 -69
37 -82 53 -36 45 l33 -5 -30 26 c-16 14 -55 33 -85 41 -44 13 -66 28 -107 73
-29 30 -53 62 -53 71 0 8 -16 39 -36 68 -19 30 -38 69 -41 88 -3 19 -10 34
-14 34 -5 0 -9 12 -9 27 l0 26 -26 -24 c-43 -40 -48 -58 -21 -68 16 -6 30 -26
44 -63 32 -82 -4 -76 -54 9 -14 24 -27 42 -29 40 -2 -2 -11 -52 -19 -111 -15
-100 -15 -109 1 -133 31 -49 68 -75 179 -129 121 -58 320 -194 459 -312 93
-78 308 -231 399 -281 63 -36 147 -51 283 -51 75 0 118 -5 165 -21 61 -19 72
-19 230 -8 183 13 214 10 223 -23 10 -40 6 -150 -8 -233 -39 -224 -31 -429 39
-925 48 -340 52 -381 40 -480 -7 -51 -13 -69 -32 -84 -18 -13 -23 -25 -19 -41
9 -36 -16 -48 -105 -49 -76 -1 -82 -3 -105 -29 -24 -28 -25 -32 -18 -140 7
-125 12 -106 -114 -417 -28 -69 -56 -155 -61 -191 -17 -107 -4 -139 144 -343
143 -197 239 -301 334 -364 60 -40 65 -41 85 -27 43 32 48 30 105 -31 41 -44
68 -63 99 -73 24 -7 60 -28 80 -46 32 -30 35 -36 25 -54 -11 -17 -8 -23 23
-50 41 -36 76 -52 181 -82 43 -11 81 -23 86 -26 4 -2 -11 -25 -34 -51 -52 -60
-72 -98 -64 -124 7 -19 10 -18 46 18 35 34 39 36 39 16 0 -13 -6 -22 -15 -22
-8 0 -15 -5 -15 -11 0 -26 139 57 146 87 5 19 10 21 35 14 16 -5 44 -18 62
-29 39 -24 132 -116 132 -131 0 -5 11 -17 25 -27 14 -9 55 -45 92 -80 77 -71
109 -84 138 -58 27 25 25 37 -5 29 -20 -5 -35 5 -93 64 -84 87 -149 182 -208
306 -46 97 -54 124 -29 90 19 -25 19 -14 -1 36 -9 22 -21 40 -28 40 -6 0 -30
56 -54 124 -34 97 -42 131 -37 160 4 20 3 36 -1 36 -5 0 -33 -9 -62 -20 -66
-25 -72 -25 -72 4 0 13 -6 26 -14 29 -8 3 -32 35 -53 71 -33 58 -42 66 -68 66
-25 0 -33 6 -42 30 -8 20 -18 30 -32 30 -26 0 -26 7 -1 45 11 17 20 33 20 37
0 4 -18 12 -39 18 -32 8 -40 15 -43 38 -3 18 4 36 20 53 13 15 43 74 66 132
68 166 157 316 308 519 l79 107 67 8 c124 15 318 8 422 -17 80 -18 111 -20
200 -15 115 7 112 8 385 -89 58 -21 119 -36 145 -36 59 0 120 17 146 41 29 27
57 15 125 -53 33 -33 98 -79 166 -118 62 -35 133 -83 158 -107 25 -24 50 -41
54 -39 4 3 6 -5 4 -17 -4 -25 31 -87 49 -87 21 0 114 46 166 82 70 48 161 138
183 181 l20 37 -60 -42 c-64 -47 -207 -131 -231 -137 -8 -1 -23 -10 -32 -18
-22 -20 -63 -13 -61 10 0 12 -4 16 -13 13 -26 -10 29 54 81 94 28 22 81 53
118 70 l67 30 -15 30 c-8 16 -15 33 -15 37 1 14 40 -39 40 -53 0 -18 14 -18
51 1 26 14 28 18 18 38 -19 36 -29 38 -134 32 -61 -3 -106 -2 -115 5 -12 8
-11 10 9 10 17 0 22 4 17 16 -3 9 -6 26 -6 39 0 17 -6 25 -22 27 -13 2 -23 10
-23 19 0 9 -8 24 -18 33 -9 10 -17 28 -17 41 0 18 -4 22 -19 18 -15 -4 -29 8
-56 46 -20 28 -41 51 -46 51 -5 0 -9 6 -9 13 0 22 -60 72 -142 117 -43 24 -99
63 -126 86 -26 23 -56 43 -67 45 -11 3 -20 12 -20 23 0 28 -38 39 -58 16 -10
-12 -12 -21 -5 -28 7 -7 0 -15 -21 -26 -27 -14 -31 -14 -31 -2 0 8 4 17 9 20
17 11 -33 93 -69 112 -19 10 -46 36 -59 57 -20 31 -30 37 -58 37 -19 0 -52 10
-75 21 -23 12 -56 23 -72 24 -17 2 -58 17 -91 33 -73 37 -140 54 -310 83 -99
16 -151 31 -220 61 -76 34 -105 42 -188 48 -109 9 -131 20 -141 74 -4 18 -25
63 -47 101 -34 56 -40 74 -36 105 2 21 1 43 -3 50 -9 15 -30 5 -30 -14 0 -19
-37 -59 -49 -52 -6 4 -17 -8 -24 -26 -16 -39 -83 -101 -99 -92 -5 3 -8 22 -6
40 3 22 0 34 -8 34 -25 0 -33 70 -10 89 9 8 12 25 9 55 -3 24 0 60 7 81 10 29
10 39 0 45 -8 5 -7 11 5 23 13 14 14 26 5 81 -6 36 -13 72 -16 81 -5 11 -2 14
10 9 9 -4 16 -1 16 6 0 9 4 10 13 2 10 -9 16 -4 24 18 7 18 7 32 2 36 -18 11
-9 24 30 44 22 10 49 31 60 46 15 19 21 22 21 10 0 -9 5 -16 10 -16 6 0 10 9
10 20 0 11 3 19 8 18 4 -2 8 1 9 5 1 4 10 15 19 24 12 13 20 14 33 6 9 -6 15
-17 13 -24 -4 -16 18 -69 28 -69 12 0 20 27 20 65 0 24 -7 39 -26 54 l-25 20
33 -5 c29 -5 38 0 79 43 53 55 67 102 45 145 -13 24 -12 28 5 44 10 9 19 22
19 29 0 6 12 18 26 26 40 21 106 99 143 168 18 34 61 108 95 164 109 180 235
488 252 613 10 77 -9 143 -91 315 -41 86 -75 161 -75 166 0 6 -10 22 -21 37
l-22 27 22 15 c11 8 21 19 21 25 0 15 -98 136 -116 143 -26 10 -34 7 -34 -14
0 -24 -25 -27 -34 -4 -9 25 -7 34 8 34 24 0 26 15 10 64 -16 45 -35 63 -32 29
1 -10 0 -30 0 -45 l-2 -27 -38 17 c-48 20 -81 60 -61 73 30 18 -7 22 -113 9
-97 -11 -118 -10 -148 2 -33 13 -37 13 -69 -9z m639 -455 c24 -57 34 -178 14
-185 -6 -2 -28 38 -49 88 -37 87 -38 92 -21 105 14 10 17 20 12 40 -12 45 18
13 44 -48z m-282 -1084 c12 -8 27 -25 32 -37 9 -17 6 -16 -12 6 -13 15 -29 27
-35 27 -7 0 -15 5 -18 10 -9 15 8 12 33 -6z m-631 -46 c-3 -7 -5 -2 -5 12 0
14 2 19 5 13 2 -7 2 -19 0 -25z m502 -127 c11 -7 9 -11 -9 -21 -25 -14 -33 -9
-24 14 7 18 13 19 33 7z m-369 -121 c0 -5 -5 -10 -11 -10 -5 0 -7 5 -4 10 3 6
8 10 11 10 2 0 4 -4 4 -10z m294 -15 c3 -8 1 -15 -4 -15 -6 0 -10 7 -10 15 0
8 2 15 4 15 2 0 6 -7 10 -15z m-301 -29 c26 -20 21 -26 -13 -15 -16 6 -27 15
-24 20 7 12 16 11 37 -5z m-78 -27 c11 -17 -1 -21 -15 -4 -8 9 -8 15 -2 15 6
0 14 -5 17 -11z m-25 -113 c9 -11 9 -19 0 -33 -10 -16 -10 -15 -5 5 4 13 2 22
-4 22 -6 0 -11 -5 -11 -12 0 -9 -3 -9 -11 -1 -11 11 -5 33 10 33 5 0 14 -7 21
-14z m-207 -106 c-3 -12 -8 -18 -11 -15 -3 3 -16 -5 -29 -17 -13 -12 -23 -17
-23 -12 0 7 58 62 67 64 0 0 -1 -9 -4 -20z m197 16 c0 -11 -19 -15 -25 -6 -3
5 1 10 9 10 9 0 16 -2 16 -4z m-15 -56 c3 -5 -1 -10 -9 -10 -8 0 -18 5 -21 10
-3 6 1 10 9 10 8 0 18 -4 21 -10z m125 6 c0 -2 -7 -6 -15 -10 -8 -3 -15 -1
-15 4 0 6 7 10 15 10 8 0 15 -2 15 -4z m-336 -21 c-4 -9 -16 -21 -28 -27 -19
-10 -19 -9 3 16 28 30 33 32 25 11z m196 -35 c0 -5 -4 -10 -9 -10 -6 0 -13 5
-16 10 -3 6 1 10 9 10 9 0 16 -4 16 -10z m-60 -49 c0 -6 -11 -23 -25 -38 -28
-32 -34 -14 -7 22 18 25 32 32 32 16z m30 -78 c-7 -21 -30 -81 -52 -133 -59
-141 -89 -278 -81 -362 4 -52 3 -68 -7 -68 -9 0 -10 -3 -2 -13 7 -8 9 -29 6
-49 -4 -22 0 -56 11 -88 21 -65 13 -75 -15 -19 -16 30 -21 53 -17 81 4 27 1
38 -8 38 -18 0 -22 15 -15 69 3 25 2 56 -4 69 -6 15 -4 47 9 105 25 119 34
144 72 210 20 32 38 78 41 101 6 48 50 122 65 107 6 -6 5 -23 -3 -48z m-230
-48 c-41 -41 -70 -57 -70 -37 0 16 58 64 69 58 6 -4 11 0 11 8 0 9 8 16 17 16
12 0 4 -13 -27 -45z m505 -525 c3 -5 16 -11 28 -11 17 -1 18 -2 5 -6 -21 -5
-23 -14 -6 -31 10 -10 10 -15 -1 -22 -11 -6 -3 -11 27 -19 23 -6 60 -16 83
-22 77 -20 66 -61 -46 -171 -47 -45 -88 -92 -91 -104 -4 -14 -16 -24 -36 -28
-16 -3 -44 -16 -61 -28 -18 -13 -54 -31 -82 -42 -82 -31 -278 -73 -318 -68
l-37 4 0 49 c0 66 20 74 121 50 84 -21 99 -18 99 15 0 20 5 24 29 24 42 0 81
-17 81 -35 0 -17 4 -18 38 -9 26 7 30 39 6 48 -12 5 -15 14 -11 34 4 21 0 33
-14 45 -29 26 -24 41 12 33 17 -3 39 -6 47 -6 12 0 13 -3 5 -11 -9 -9 -6 -19
10 -40 11 -16 24 -29 28 -29 12 0 59 109 59 136 0 12 -4 26 -10 29 -5 3 -10
25 -10 48 0 24 -7 52 -15 64 -13 19 -12 25 11 67 26 46 37 55 49 36z m-165
-119 c-1 -13 -3 -13 -15 3 -19 26 -19 42 0 26 8 -7 15 -20 15 -29z m608 -96
c-2 -1 -19 -5 -39 -9 -26 -4 -36 -3 -36 6 0 9 12 12 39 10 22 -3 38 -5 36 -7z
m-106 -68 c-7 -8 -9 -16 -6 -19 2 -3 -2 -8 -11 -12 -14 -5 -14 -2 1 24 10 16
20 27 22 25 3 -3 0 -11 -6 -18z m102 14 c11 -4 15 -10 9 -14 -5 -3 -19 0 -29
8 -20 15 -11 18 20 6z m-34 -51 c0 -13 -20 -13 -40 0 -12 8 -9 10 13 10 15 0
27 -4 27 -10z m75 -27 c-9 -51 -28 -81 -20 -33 3 19 6 43 6 53 0 9 5 17 11 17
6 0 8 -14 3 -37z m-138 -8 c19 -12 33 -28 33 -40 0 -16 -6 -12 -31 18 -17 20
-35 37 -40 37 -6 0 -8 -4 -5 -9 3 -5 -1 -11 -9 -15 -21 -8 -19 -26 10 -82 26
-48 22 -44 -23 23 l-22 34 21 30 c12 17 24 29 28 27 3 -2 21 -12 38 -23z m179
-67 c-11 -21 -27 -38 -35 -38 -11 0 -11 4 2 18 10 10 17 24 17 30 0 6 5 23 12
37 11 24 13 25 19 8 4 -11 -2 -33 -15 -55z m61 -20 c-3 -7 -5 -2 -5 12 0 14 2
19 5 13 2 -7 2 -19 0 -25z m-346 -15 c13 -17 13 -17 -6 -3 -11 8 -22 16 -24
17 -2 2 0 3 6 3 6 0 17 -8 24 -17z m328 -52 c-6 -18 -13 -30 -15 -28 -2 2 1
18 7 36 6 18 13 30 15 28 2 -2 -1 -18 -7 -36z m-159 -1 c-6 -11 -13 -20 -16
-20 -2 0 0 9 6 20 6 11 13 20 16 20 2 0 0 -9 -6 -20z m-610 -30 c0 -5 -2 -10
-4 -10 -3 0 -8 5 -11 10 -3 6 -1 10 4 10 6 0 11 -4 11 -10z m1758 -101 c19 0
12 -4 -23 -14 -27 -8 -52 -14 -54 -15 -3 0 6 12 20 26 13 14 25 20 27 15 2 -6
16 -11 30 -12z m345 -266 c-22 -55 -13 -141 27 -236 34 -82 33 -94 -13 -119
-15 -8 -18 -7 -15 3 7 22 -16 37 -48 31 -28 -5 -29 -4 -11 15 27 30 20 39 -10
12 l-27 -24 23 33 c12 17 18 32 12 32 -6 0 -16 -10 -22 -22 -12 -22 -12 -22
-19 -3 -7 18 -8 19 -15 3 -4 -10 -12 -18 -18 -18 -6 0 6 18 28 40 42 44 44 62
2 29 -15 -11 -27 -15 -27 -9 0 21 32 60 50 60 28 0 40 23 54 104 11 63 28 106
42 106 2 0 -4 -17 -13 -37z m-168 -263 c-3 -5 -21 -10 -40 -10 -19 0 -37 5
-40 10 -4 6 12 10 40 10 28 0 44 -4 40 -10z m-1719 -1335 c9 -13 14 -30 12
-36 -2 -7 -14 4 -26 24 -24 41 -12 51 14 12z m144 -60 c0 -5 -5 -3 -10 5 -5 8
-10 20 -10 25 0 6 5 3 10 -5 5 -8 10 -19 10 -25z m-70 -90 c0 -5 -9 4 -20 20
-11 17 -20 37 -20 45 1 16 39 -48 40 -65z m16 -62 c-3 -3 -13 -3 -22 1 -13 5
-14 9 -3 22 11 14 13 14 22 -1 5 -9 6 -19 3 -22z m-69 -10 c-9 -9 -20 -13 -24
-9 -4 4 -1 11 7 16 25 16 35 11 17 -7z m-88 -44 c-30 -23 -43 -24 -35 -3 3 9
6 19 6 23 0 5 12 6 26 3 l27 -5 -24 -18z"/>
<path d="M10905 21673 c-27 -1 -135 -7 -240 -13 -456 -26 -841 -79 -1440 -196
-201 -40 -236 -56 -318 -143 -53 -56 -91 -128 -112 -208 -60 -231 83 -482 316
-554 73 -23 182 -25 259 -4 58 15 76 27 313 198 443 321 780 527 1302 794
l260 133 -145 -2 c-80 -1 -167 -3 -195 -5z"/>
<path d="M4710 20900 c17 -33 60 -73 60 -56 0 11 -64 96 -72 96 -5 0 1 -18 12
-40z"/>
<path d="M5033 20930 c-31 -13 -29 -16 10 -17 17 0 43 -4 57 -8 25 -8 25 -8 6
13 -20 23 -38 26 -73 12z"/>
<path d="M4952 20865 c-18 -25 -40 -45 -48 -45 -8 0 -12 -4 -9 -10 10 -17 26
-11 55 20 24 26 27 27 22 8 -4 -17 -2 -20 13 -14 16 6 17 1 11 -58 -4 -40 -3
-67 4 -71 5 -3 10 3 10 14 0 11 21 50 46 87 35 51 44 72 37 83 -15 24 -71 26
-95 4 -21 -18 -21 -18 -9 5 20 37 -2 24 -37 -23z"/>
<path d="M20650 20855 c-30 -9 -82 -28 -115 -44 -48 -22 -56 -28 -39 -33 11
-3 46 3 78 12 l57 18 -14 -21 c-8 -12 -24 -23 -36 -25 -25 -4 -26 -36 -1 -38
8 -1 21 -2 28 -3 6 0 12 -5 12 -11 0 -5 -17 -10 -37 -10 -39 0 -84 -18 -53
-21 8 -1 35 -1 60 0 41 1 47 -2 68 -35 12 -19 22 -39 22 -44 0 -23 -137 -40
-197 -24 l-21 6 20 34 c19 32 19 34 2 28 -18 -5 -18 -5 -1 6 9 6 17 17 17 24
0 7 11 18 25 24 14 6 25 19 25 28 0 10 -3 14 -7 11 -3 -4 -13 -1 -21 6 -12 9
-17 9 -25 -4 -9 -14 -12 -14 -29 3 -10 10 -28 18 -39 18 -19 0 -20 2 -8 16 12
14 11 16 -6 13 -10 -2 -28 -21 -39 -42 -12 -22 -54 -62 -101 -98 -99 -74 -114
-94 -115 -141 0 -29 8 -47 35 -77 19 -21 35 -45 35 -54 0 -26 -40 -46 -103
-53 -59 -7 -59 -7 -33 -21 33 -17 36 -45 4 -39 -69 14 -127 16 -217 6 -128
-14 -237 -41 -233 -58 1 -8 -2 -11 -7 -8 -5 3 -15 -1 -22 -10 -25 -30 -105
-62 -223 -88 -122 -26 -150 -28 -97 -6 36 15 71 50 50 50 -23 0 -119 -48 -183
-92 -86 -57 -163 -126 -378 -335 -254 -247 -290 -273 -538 -392 -90 -43 -141
-75 -182 -113 -31 -29 -96 -78 -143 -108 -48 -30 -117 -84 -154 -120 -36 -36
-107 -94 -157 -130 -119 -84 -261 -201 -268 -220 -3 -8 -9 -21 -12 -27 -4 -10
7 -13 39 -13 59 0 94 -29 129 -106 15 -33 41 -90 58 -129 17 -38 42 -81 54
-95 13 -14 26 -37 30 -53 3 -15 19 -41 35 -59 26 -30 27 -33 13 -61 l-15 -29
-29 48 c-17 26 -48 93 -70 148 -99 253 -130 311 -173 322 -63 16 -147 -29
-212 -115 -18 -23 -33 -37 -33 -29 0 21 -116 -224 -123 -262 -14 -66 25 -119
223 -309 99 -96 202 -203 227 -240 70 -99 94 -123 268 -255 284 -215 494 -451
594 -666 58 -126 82 -231 88 -386 4 -91 2 -153 -5 -173 -10 -27 -8 -35 9 -52
27 -27 81 -49 120 -49 66 0 133 84 192 240 48 128 60 197 59 330 -1 104 2 134
19 180 11 30 25 72 31 92 10 38 28 43 28 8 0 -13 5 -17 15 -14 9 4 31 -8 54
-27 21 -19 55 -47 76 -63 82 -63 132 -187 142 -351 5 -86 10 -107 36 -150 39
-67 66 -95 91 -95 35 0 145 72 196 128 61 66 96 137 117 237 19 97 7 204 -34
298 -22 49 -27 78 -28 139 0 80 -9 109 -21 63 -13 -51 2 -148 35 -219 34 -75
37 -116 21 -245 -8 -63 -34 -131 -45 -119 -1 1 3 32 11 68 16 76 18 190 4 190
-5 0 -10 -7 -10 -16 0 -8 -4 -13 -9 -9 -5 3 -12 -3 -14 -12 -4 -14 -5 -13 -6
5 0 12 -5 22 -10 22 -4 0 -11 30 -14 68 -4 37 -13 139 -21 227 -20 217 -49
291 -139 350 -27 17 -28 17 -63 -10 -33 -26 -42 -54 -13 -46 50 14 71 12 91
-8 16 -18 19 -29 12 -59 -7 -35 -8 -35 -12 -9 -4 32 -18 35 -27 6 -6 -19 -8
-19 -31 -5 -43 29 -90 11 -57 -22 7 -7 13 -24 13 -38 0 -26 17 -33 22 -9 3 14
6 14 26 -1 18 -13 21 -19 11 -30 -7 -8 -20 -12 -30 -9 -11 4 -32 -3 -50 -16
l-31 -22 7 24 c4 13 10 30 12 37 3 6 1 12 -5 12 -6 0 -15 -13 -21 -30 -5 -16
-14 -30 -18 -30 -5 0 -14 -15 -21 -33 -6 -18 -19 -42 -27 -52 -8 -11 -3 6 11
38 30 68 34 129 10 175 l-17 33 27 -7 c19 -5 25 -4 20 5 -4 6 -15 11 -24 11
-11 0 -5 8 16 21 43 28 35 34 -26 18 -41 -10 -56 -10 -83 1 -20 8 -138 116
-279 255 -135 132 -267 256 -293 275 -44 31 -48 38 -43 64 4 16 7 30 9 31 65
28 79 39 106 87 68 123 66 121 230 218 179 107 248 155 311 220 25 25 57 50
71 57 67 30 110 85 233 301 l46 82 -15 66 c-22 94 -20 130 10 159 13 14 29 25
36 25 6 0 70 27 143 60 86 39 182 73 281 99 83 21 174 49 203 60 126 50 162 8
162 -190 0 -124 10 -172 64 -323 26 -70 49 -155 54 -198 11 -84 17 -98 136
-297 87 -145 126 -242 126 -310 0 -23 15 -62 41 -110 56 -103 71 -168 59 -245
-17 -104 -13 -143 14 -161 48 -32 72 5 96 145 15 87 20 101 31 94 6 -3 17 0
25 7 21 17 49 -12 74 -78 29 -78 49 -113 63 -113 13 0 41 -60 32 -69 -3 -2
-21 0 -40 6 -40 13 -48 -2 -17 -29 13 -13 31 -14 81 -9 69 7 86 21 47 39 -36
16 -83 85 -103 151 -10 31 -28 65 -40 76 -12 11 -25 34 -29 50 l-7 30 23 -20
c12 -11 30 -36 40 -56 23 -44 51 -70 57 -51 8 23 42 12 58 -18 22 -43 60 -59
83 -36 16 16 16 18 -2 31 -11 8 -34 17 -51 21 -21 4 -31 11 -32 25 -1 11 -18
39 -37 62 -52 60 -61 70 -90 90 -14 10 -26 27 -26 37 0 13 -7 20 -20 20 -11 0
-25 9 -32 19 -6 10 -18 17 -25 14 -7 -3 -13 0 -13 6 0 7 7 14 15 17 21 8 19
24 -3 24 -15 0 -17 7 -13 43 4 30 6 35 9 17 2 -13 13 -31 23 -38 11 -7 34 -36
53 -63 33 -50 118 -117 125 -98 3 11 -43 82 -67 101 -14 11 -15 10 -9 -7 7
-20 7 -20 -8 0 -19 24 -45 109 -45 146 0 14 7 33 17 40 23 20 45 77 38 100 -8
25 -25 25 -25 -1 0 -11 -6 -20 -12 -20 -7 0 -24 -9 -38 -20 -25 -20 -80 -27
-80 -11 0 17 90 91 112 91 17 0 19 3 10 12 -9 9 -21 8 -53 -2 -53 -18 -66 -9
-104 65 -16 32 -34 57 -39 56 -9 -3 -26 18 -26 33 0 5 8 2 17 -5 15 -12 16
-12 9 6 -33 80 -38 118 -40 295 -3 205 6 166 -92 400 -23 55 -27 80 -28 166
l-1 100 51 85 c66 107 68 117 53 195 -12 62 -12 65 11 89 37 40 81 49 189 39
53 -5 184 -9 291 -10 180 0 206 -3 340 -32 80 -18 161 -32 182 -32 20 0 65 13
101 29 35 16 91 35 123 41 77 16 83 20 171 101 41 38 88 76 104 84 16 9 29 21
29 29 0 7 19 48 41 91 37 70 41 85 40 144 -4 178 -51 309 -141 396 -46 44 -36
9 14 -46 57 -63 76 -121 76 -223 -1 -79 -1 -80 -15 -48 -8 18 -19 31 -23 28
-5 -3 -15 6 -22 19 -17 31 -30 32 -30 3 0 -16 -12 -1 -37 46 -36 66 -127 178
-142 173 -3 -1 -24 13 -46 31 -38 31 -39 34 -22 47 16 12 24 10 65 -16 53 -33
92 -40 52 -9 -14 11 -29 20 -33 20 -5 0 -22 9 -38 20 -27 20 -30 20 -54 4 -24
-16 -29 -16 -85 1 -33 10 -60 22 -60 26 0 13 87 22 171 17 92 -5 85 6 -14 23
-141 23 -249 -11 -351 -113 -99 -100 -132 -217 -107 -388 l12 -82 87 -84 c81
-78 85 -83 59 -84 -16 0 -91 21 -168 46 -77 25 -151 46 -165 47 -13 1 -28 7
-32 13 -14 22 -212 58 -311 56 -52 0 -99 1 -103 4 -5 3 22 27 60 54 115 80
179 182 169 267 -15 132 -178 324 -272 322 -17 -1 -61 2 -100 5 -49 4 -87 1
-125 -9z m130 -20 c11 -13 8 -15 -13 -15 -14 0 -31 -8 -36 -17 -10 -17 -10
-17 -11 0 0 10 -7 20 -16 24 -13 5 -13 7 -2 14 21 14 64 10 78 -6z m-87 -39
c24 -22 25 -28 16 -55 -6 -17 -15 -29 -20 -26 -4 3 -6 12 -2 21 3 8 -4 25 -17
39 -12 13 -19 28 -15 34 8 15 8 15 38 -13z m128 -38 c14 -18 18 -40 19 -95 0
-42 -4 -73 -10 -73 -5 0 -10 9 -10 20 0 11 -11 27 -25 36 -30 20 -34 68 -8 96
15 17 15 20 3 28 -12 8 -12 10 -2 10 8 0 22 -10 33 -22z m-171 -13 c0 -8 -4
-15 -10 -15 -5 0 -10 7 -10 15 0 8 5 15 10 15 6 0 10 -7 10 -15z m1155 -9 c17
7 92 -14 101 -27 3 -6 0 -17 -8 -25 -10 -11 -22 -11 -50 -4 -29 8 -44 7 -70
-5 l-33 -15 40 5 c71 8 70 -4 -8 -99 -46 -56 -73 -82 -75 -72 -2 10 -13 15
-30 14 -15 -1 -40 -1 -55 0 l-29 2 22 35 c23 38 11 49 -14 13 -9 -12 -16 -18
-16 -12 0 16 55 97 86 126 38 35 118 80 122 68 2 -5 9 -7 17 -4z m205 -101
c19 -20 27 -33 18 -30 -13 5 -18 2 -18 -12 0 -21 -45 -69 -53 -56 -2 4 -7 21
-11 37 -4 17 -16 42 -27 57 -19 28 -19 28 2 43 26 18 40 12 89 -39z m-1631 26
c18 -12 0 -21 -28 -14 -17 4 -19 8 -9 14 16 11 20 11 37 0z m1523 -48 c23 -20
24 -90 2 -121 -16 -23 -67 -31 -79 -11 -4 6 -13 8 -20 5 -8 -3 -16 0 -19 7 -5
9 -7 9 -12 0 -3 -7 -10 -13 -15 -13 -15 0 20 59 63 106 45 49 53 52 80 27z
m-1054 -46 c7 -8 6 -19 -3 -37 -8 -14 -14 -33 -15 -44 0 -12 -5 -16 -15 -12
-8 3 -15 1 -15 -4 0 -18 -39 -11 -60 10 -19 19 -22 20 -37 4 -16 -16 -15 -19
20 -48 39 -33 43 -45 27 -76 -10 -19 -12 -19 -40 7 -16 14 -27 30 -24 35 3 5
1 14 -4 21 -5 7 -12 22 -15 35 -15 60 143 156 181 109z m62 -37 c0 -5 -7 -10
-16 -10 -8 0 -12 5 -9 10 3 6 10 10 16 10 5 0 9 -4 9 -10z m1379 -235 c0 -5
-6 1 -14 15 -8 14 -14 30 -14 35 0 6 6 -1 14 -15 8 -14 14 -29 14 -35z m46
-52 c-4 -15 -10 -22 -12 -15 -3 6 -9 10 -14 6 -15 -9 -10 13 6 26 8 7 12 17 8
24 -4 7 -2 7 7 -1 8 -8 10 -21 5 -40z m-96 -65 c-1 -18 -3 -25 -6 -16 -4 15
-8 16 -25 7 -16 -9 -19 -8 -13 3 28 48 45 50 44 6z m-2101 -77 c-4 -20 37 -28
58 -11 10 9 14 9 14 1 0 -6 7 -11 15 -11 8 0 15 -7 15 -16 0 -16 5 -16 71 -2
9 2 13 -4 11 -14 -4 -22 16 -23 39 -2 17 15 20 15 45 -5 21 -17 29 -19 35 -9
7 10 12 11 29 1 11 -7 28 -13 39 -13 23 0 31 -19 31 -75 0 -45 15 -69 26 -41
3 9 10 16 16 16 5 0 2 -10 -6 -22 -22 -32 -20 -70 8 -110 23 -34 23 -35 4 -58
-10 -13 -17 -29 -14 -37 7 -18 -9 -17 -24 2 -7 8 -21 15 -31 15 -11 0 -20 6
-20 13 -1 6 -3 32 -5 57 -5 54 -10 93 -13 100 -2 3 -8 25 -14 50 -9 34 -17 45
-32 45 -11 0 -31 11 -45 25 l-25 25 -3 -23 c-3 -20 -8 -23 -30 -18 -42 10 -82
28 -82 36 0 4 -36 11 -80 15 -50 4 -83 12 -88 20 -4 8 -18 18 -31 23 l-24 8
33 31 c32 29 35 30 57 16 13 -9 22 -23 21 -32z m-108 -169 c0 -6 -10 -12 -22
-14 -17 -2 -24 -10 -26 -33 -1 -16 2 -37 7 -45 9 -12 14 -12 43 1 28 14 39 14
76 4 55 -17 74 -33 63 -52 -9 -18 -81 -45 -81 -32 0 12 -47 11 -55 -1 -11 -18
-42 8 -59 50 -20 51 -21 112 0 151 l15 30 20 -24 c10 -14 19 -30 19 -35z m698
-174 c4 -73 2 -89 -9 -86 -8 1 -28 -6 -44 -18 -47 -32 -55 -36 -55 -25 0 6 6
11 14 11 22 0 29 19 14 37 -7 9 -18 35 -24 59 -10 42 1 94 43 204 3 10 14 -4
31 -39 18 -40 26 -77 30 -143z m1222 128 c0 -2 -11 -6 -25 -8 -13 -3 -22 -1
-19 3 5 9 44 13 44 5z m-2211 -307 c15 -4 -16 -5 -69 -2 -127 7 -232 -9 -370
-58 -148 -52 -165 -56 -108 -24 71 38 213 83 298 93 77 10 203 6 249 -9z m838
-26 c-3 -10 -5 -2 -5 17 0 19 2 27 5 18 2 -10 2 -26 0 -35z m47 -225 c8 -29
22 -97 31 -150 9 -53 25 -113 35 -133 l19 -36 -42 34 c-28 24 -41 42 -40 56 4
30 -14 26 -47 -9 -30 -33 -74 -40 -84 -14 -4 9 -2 13 5 8 13 -8 9 -1 -34 62
-27 40 -27 41 -14 99 7 32 19 61 27 63 7 3 10 0 6 -7 -5 -7 2 -11 19 -11 15 0
24 -4 20 -10 -3 -5 0 -10 9 -10 8 0 20 14 28 30 7 17 16 30 20 30 5 0 8 11 8
25 0 43 19 28 34 -27z m112 -373 c10 -24 14 -73 14 -158 l0 -124 -25 5 c-15 2
-25 11 -25 21 0 9 -6 25 -13 36 -26 39 -18 72 17 66 5 -1 5 6 0 16 -11 26 -11
146 1 160 14 17 14 17 31 -22z m-148 -107 c5 -7 9 -28 7 -46 -2 -29 2 -35 32
-47 33 -14 39 -31 24 -68 -4 -10 -11 -18 -16 -17 -6 0 -11 -8 -13 -20 -2 -11
-8 -18 -13 -15 -5 4 -12 -1 -15 -9 -4 -11 -19 -16 -43 -16 -22 0 -31 3 -23 8
9 6 6 14 -12 31 -29 27 -41 82 -25 112 8 16 8 23 -1 29 -9 6 -6 16 11 39 24
33 68 42 87 19z m-18 -273 c-7 -8 -20 -15 -29 -15 -11 1 -8 5 9 15 32 18 35
18 20 0z m58 -47 c-17 -30 -31 -40 -39 -26 -4 6 -16 8 -28 5 -31 -8 -25 10 7
19 15 4 32 8 37 8 6 1 14 7 18 14 15 23 19 5 5 -20z m-38 -52 c0 -2 -3 -11 -6
-20 -9 -23 -24 -20 -24 4 0 11 7 20 15 20 8 0 15 -2 15 -4z m236 -91 c11 -8
14 -15 7 -15 -19 0 -16 -40 4 -62 15 -17 15 -18 0 -18 -26 0 -20 -19 8 -26 43
-11 29 -26 -17 -19 -35 6 -40 5 -35 -9 3 -8 2 -18 -4 -22 -17 -10 -47 25 -51
62 -4 31 -2 34 22 34 41 0 52 13 40 44 -18 49 -10 58 26 31z m32 -50 c-3 -3
-9 2 -12 12 -6 14 -5 15 5 6 7 -7 10 -15 7 -18z m-63 -284 c14 -15 25 -31 25
-35 0 -4 9 -20 21 -34 l21 -27 -38 -5 c-20 -3 -40 -11 -42 -19 -3 -10 2 -12
21 -8 21 6 27 2 37 -22 11 -27 15 -29 47 -24 31 5 35 4 31 -13 -2 -14 -12 -19
-38 -19 -37 0 -60 -27 -60 -73 0 -17 -5 -23 -17 -20 -24 4 -30 56 -8 64 14 6
11 12 -16 40 -25 26 -30 38 -25 59 6 23 4 26 -14 20 -11 -3 -20 -4 -20 -1 0 3
-12 50 -26 105 -22 86 -24 105 -14 142 l12 43 38 -74 c22 -40 50 -85 65 -99z
m-2882 140 c-4 -16 7 -26 51 -51 48 -28 77 -50 63 -50 -11 0 -118 40 -145 54
-46 24 -37 66 14 66 17 0 21 -5 17 -19z m0 -136 c60 -13 113 -27 118 -32 6 -6
-17 -10 -55 -11 -56 -2 -73 3 -142 37 -44 22 -88 47 -99 56 -12 10 -3 8 24 -5
24 -12 93 -32 154 -45z m208 -71 c40 -55 137 -122 190 -130 53 -9 39 -24 -22
-24 -50 0 -52 1 -138 84 -68 65 -86 88 -79 100 5 9 11 16 13 16 2 0 18 -21 36
-46z m2816 -70 c-9 -10 -38 16 -31 28 4 6 13 4 22 -6 9 -8 13 -19 9 -22z
m-2411 -135 c23 -16 79 -71 123 -123 45 -52 111 -122 146 -154 61 -55 65 -62
65 -102 0 -40 -1 -42 -17 -28 -10 9 -34 23 -53 33 -54 27 -72 46 -59 61 8 10
6 20 -8 38 -10 14 -23 26 -28 26 -6 0 -29 19 -50 41 -47 48 -121 99 -146 99
-10 0 -30 -11 -46 -24 l-28 -24 -47 24 c-26 13 -58 24 -72 24 -13 0 -26 7 -30
15 -4 12 2 15 28 15 63 0 85 22 51 50 -19 16 -4 37 40 56 39 17 79 9 131 -27z
m2286 -86 c8 -41 -5 -126 -19 -131 -22 -7 -31 40 -21 101 11 61 32 77 40 30z
m-2488 -90 c9 4 18 -5 24 -23 10 -26 8 -29 -17 -38 -20 -7 -34 -6 -52 4 -13 7
-18 13 -11 14 23 0 12 16 -28 39 -22 12 -40 26 -40 31 0 18 26 15 67 -8 24
-13 50 -22 57 -19z m-104 -28 c33 -19 21 -19 -21 0 -19 8 -27 14 -19 14 8 0
26 -6 40 -14z m190 -15 c0 -5 -7 -10 -15 -10 -8 0 -15 5 -15 10 0 6 7 10 15
10 8 0 15 -4 15 -10z m935 -388 c-3 -3 -11 0 -18 7 -9 10 -8 11 6 5 10 -3 15
-9 12 -12z m-508 -269 c-4 -20 -12 -41 -18 -47 -9 -8 -10 -4 -5 17 5 21 4 27
-5 21 -9 -5 -10 -2 -6 10 4 10 7 22 7 27 0 5 7 9 16 9 14 0 15 -7 11 -37z
m-60 5 c-3 -8 -6 -5 -6 6 -1 11 2 17 5 13 3 -3 4 -12 1 -19z m-10 -40 c-3 -8
-6 -5 -6 6 -1 11 2 17 5 13 3 -3 4 -12 1 -19z m27 -22 c-3 -15 -8 -25 -11 -23
-2 3 -1 17 3 31 3 15 8 25 11 23 2 -3 1 -17 -3 -31z m-37 -28 c-3 -8 -6 -5 -6
6 -1 11 2 17 5 13 3 -3 4 -12 1 -19z m20 -30 c-3 -8 -6 -5 -6 6 -1 11 2 17 5
13 3 -3 4 -12 1 -19z m-10 -40 c-3 -8 -6 -5 -6 6 -1 11 2 17 5 13 3 -3 4 -12
1 -19z m597 -140 c5 -21 3 -28 -9 -28 -10 0 -15 10 -15 34 0 18 -2 49 -5 67
-5 32 -4 32 9 -6 7 -22 16 -52 20 -67z m133 55 c-3 -10 -5 -4 -5 12 0 17 2 24
5 18 2 -7 2 -21 0 -30z m-770 -5 c-3 -8 -6 -5 -6 6 -1 11 2 17 5 13 3 -3 4
-12 1 -19z m800 -30 c-3 -7 -5 -2 -5 12 0 14 2 19 5 13 2 -7 2 -19 0 -25z
m-810 -30 c-3 -8 -6 -5 -6 6 -1 11 2 17 5 13 3 -3 4 -12 1 -19z m46 -2 c3 -7
0 -22 -7 -32 -7 -11 -17 -41 -21 -69 -4 -27 -11 -52 -15 -55 -5 -3 -12 -18
-16 -34 -6 -25 -4 -28 9 -23 9 3 19 2 22 -3 7 -11 -5 -40 -17 -40 -5 0 -6 5
-3 11 4 6 0 16 -9 22 -15 11 -14 21 5 112 12 55 23 106 25 113 5 16 21 15 27
-2z m-56 -48 c-3 -8 -6 -5 -6 6 -1 11 2 17 5 13 3 -3 4 -12 1 -19z m-10 -50
c-3 -7 -5 -2 -5 12 0 14 2 19 5 13 2 -7 2 -19 0 -25z m660 -5 c-3 -10 -5 -4
-5 12 0 17 2 24 5 18 2 -7 2 -21 0 -30z m30 -20 c-3 -10 -5 -4 -5 12 0 17 2
24 5 18 2 -7 2 -21 0 -30z m-700 -15 c-3 -8 -6 -5 -6 6 -1 11 2 17 5 13 3 -3
4 -12 1 -19z m-18 -67 c-7 -23 -14 -39 -16 -37 -3 2 1 23 8 45 7 23 14 39 16
37 3 -2 -1 -23 -8 -45z m631 7 c0 -6 -6 -5 -15 2 -8 7 -15 14 -15 16 0 2 7 1
15 -2 8 -4 15 -11 15 -16z m-659 -85 c-12 -20 -14 -14 -5 12 4 9 9 14 11 11 3
-2 0 -13 -6 -23z m60 -26 c-13 -13 -15 1 -4 30 7 17 8 17 11 -1 2 -10 -1 -23
-7 -29z"/>
<path d="M4986 20645 c-7 -36 -2 -55 15 -55 12 0 12 77 0 84 -5 3 -12 -10 -15
-29z"/>
<path d="M7532 20059 c3 -8 18 -15 34 -17 33 -4 24 11 -15 23 -17 5 -22 4 -19
-6z"/>
<path d="M7616 19628 c-9 -34 -7 -88 3 -88 12 0 23 92 12 103 -5 5 -11 -2 -15
-15z"/>
<path d="M7527 19391 c-12 -21 -15 -36 -9 -47 7 -13 11 -11 21 14 19 46 10 71
-12 33z"/>
<path d="M21160 17824 c0 -17 28 -49 36 -41 4 4 -2 17 -14 30 -12 12 -22 17
-22 11z"/>
<path d="M20919 17725 c10 -25 25 -53 34 -62 16 -16 17 -15 17 25 0 30 -4 42
-15 42 -8 0 -19 9 -25 20 -20 38 -28 20 -11 -25z"/>
<path d="M21542 17145 c-207 -58 -346 -239 -346 -450 0 -119 21 -173 120 -316
504 -724 789 -1249 1091 -2014 53 -132 98 -242 100 -245 6 -6 -3 238 -18 500
-40 715 -139 1298 -351 2070 -58 209 -66 229 -108 284 -52 69 -128 126 -209
157 -73 28 -206 35 -279 14z"/>
<path d="M7477 16593 c-11 -10 -8 -99 3 -129 6 -14 23 -38 39 -53 69 -64 68
-63 90 -52 18 10 21 8 27 -16 15 -68 38 -129 55 -146 23 -21 24 -15 5 16 -8
12 -27 72 -41 132 -14 61 -38 132 -53 160 -35 63 -102 111 -125 88z m88 -163
c-9 -14 19 -12 33 2 20 20 13 -5 -9 -31 -22 -27 -24 -26 -33 12 -4 17 -2 27 4
27 6 0 8 -4 5 -10z"/>
<path d="M7460 16443 c4 -16 15 -48 24 -72 9 -24 16 -50 16 -58 0 -8 11 -31
25 -51 14 -20 43 -91 65 -158 38 -113 90 -214 111 -214 4 0 -5 21 -21 48 -21
33 -100 237 -100 257 0 1 18 1 40 1 33 -1 38 1 24 11 -9 6 -23 9 -32 6 -10 -4
-14 -3 -10 2 4 4 -1 19 -12 33 -13 16 -18 33 -14 48 4 16 1 26 -9 30 -9 3 -13
12 -10 20 3 8 -1 14 -10 14 -8 0 -18 6 -21 13 -3 6 -4 -6 -1 -28 4 -32 -1 -24
-27 43 -18 45 -36 82 -40 82 -3 0 -3 -12 2 -27z m107 -215 c-3 -7 -5 -2 -5 12
0 14 2 19 5 13 2 -7 2 -19 0 -25z"/>
<path d="M7791 16109 c6 -12 20 -24 30 -26 11 -3 29 -23 40 -44 22 -44 44 -54
29 -14 -22 59 -41 83 -71 94 -42 14 -42 14 -28 -10z"/>
<path d="M7673 16090 c7 -18 19 -30 30 -30 17 0 17 1 0 30 -9 17 -23 30 -29
30 -9 0 -10 -7 -1 -30z"/>
<path d="M7725 16091 c17 -34 35 -48 35 -29 0 18 -28 58 -41 58 -5 0 -3 -13 6
-29z"/>
<path d="M7775 16059 c-8 -24 23 -74 46 -74 20 0 23 42 5 71 -20 30 -42 31
-51 3z"/>
<path d="M7710 16035 c0 -8 5 -15 10 -15 6 0 10 -9 10 -19 0 -22 22 -41 28
-23 2 6 11 8 20 5 9 -4 -1 10 -22 30 -44 42 -46 43 -46 22z"/>
<path d="M8035 15810 c9 -16 20 -30 26 -30 6 0 1 14 -11 30 -12 17 -23 30 -26
30 -2 0 2 -13 11 -30z"/>
<path d="M7906 15798 c-10 -15 -16 -35 -14 -45 3 -14 8 -11 22 15 22 42 16 66
-8 30z"/>
<path d="M3865 11595 c21 -1599 264 -2655 950 -4130 206 -442 228 -474 368
-540 220 -104 467 -35 598 167 52 82 72 164 67 280 -5 124 -26 167 -182 377
-757 1021 -1197 1872 -1491 2881 -104 358 -156 573 -251 1035 l-64 310 5 -380z"/>
<path d="M25502 10905 c0 -16 2 -22 5 -12 2 9 2 23 0 30 -3 6 -5 -1 -5 -18z"/>
<path d="M7700 8601 c-177 -66 -298 -157 -407 -305 -116 -157 -169 -318 -199
-601 -20 -193 -34 -239 -94 -296 -41 -40 -63 -52 -161 -84 -217 -71 -324 -138
-369 -230 -24 -49 -18 -73 24 -107 28 -23 54 -25 32 -2 -33 32 -13 84 56 150
61 59 115 86 268 139 192 65 240 102 278 215 15 45 20 50 31 36 26 -31 -51
-174 -107 -198 -15 -7 -38 -20 -52 -29 -14 -9 -84 -35 -157 -58 -72 -24 -137
-49 -144 -57 -6 -8 -17 -14 -24 -14 -10 0 -93 -83 -131 -132 -24 -31 2 -46 92
-53 83 -7 88 -9 118 -42 66 -75 83 -160 46 -240 -10 -24 -59 -85 -109 -136
-69 -71 -97 -109 -121 -161 -16 -37 -40 -82 -52 -99 -19 -27 -13 -24 32 16 98
87 292 300 311 342 44 96 11 223 -72 277 -23 15 -36 29 -30 33 19 11 94 -48
125 -98 30 -50 39 -120 22 -177 -7 -24 -7 -25 9 -5 14 17 15 36 10 120 l-7
100 152 299 c88 176 149 307 147 318 -3 10 -1 21 4 24 20 12 8 31 -21 32 -21
0 -30 -4 -31 -16 -1 -9 -5 -1 -10 18 -17 66 14 287 61 434 46 142 110 245 220
357 104 104 195 165 307 204 66 23 89 48 48 52 -11 1 -54 -10 -95 -26z"/>
<path d="M7914 8611 c-16 -4 -55 -20 -86 -34 -31 -15 -61 -27 -67 -27 -19 0
-140 -62 -157 -81 -9 -10 -22 -19 -28 -19 -16 0 -188 -177 -223 -230 -27 -41
-92 -170 -106 -212 -4 -10 -11 -18 -18 -18 -6 0 -9 -7 -6 -15 4 -8 2 -17 -2
-20 -5 -2 -11 -16 -13 -30 -3 -14 -1 -22 4 -19 13 8 -1 -83 -18 -121 -7 -16
-17 -62 -22 -102 -8 -68 -7 -72 13 -83 47 -25 67 -11 102 75 34 81 86 145 119
145 11 0 0 -18 -32 -53 -38 -42 -61 -83 -103 -183 -72 -174 -186 -411 -273
-567 -70 -127 -71 -129 -63 -180 5 -29 8 -73 7 -99 0 -27 2 -48 6 -48 3 0 25
19 48 41 25 24 47 38 54 34 8 -5 5 -14 -9 -29 -12 -12 -18 -27 -14 -31 5 -5 0
-3 -9 4 -15 12 -22 9 -53 -18 -73 -63 -107 -102 -101 -116 3 -9 0 -12 -10 -8
-18 7 -126 -95 -117 -110 3 -6 1 -7 -5 -3 -14 9 -66 -40 -57 -54 3 -5 0 -8 -7
-5 -18 7 -142 -120 -133 -136 6 -8 4 -10 -4 -4 -15 9 -83 -53 -74 -68 3 -6 1
-7 -5 -3 -15 9 -84 -53 -78 -70 3 -7 0 -11 -7 -8 -18 6 -81 -61 -72 -77 5 -8
4 -10 -3 -5 -17 10 -94 -55 -89 -75 3 -11 -1 -15 -12 -12 -11 3 -49 -29 -110
-91 -51 -53 -97 -96 -100 -96 -14 0 -93 -89 -87 -98 3 -5 -1 -9 -8 -8 -13 1
-221 -193 -528 -493 -70 -68 -131 -127 -136 -130 -6 -3 -73 -68 -151 -143
-120 -116 -140 -140 -132 -155 18 -33 147 -153 169 -158 15 -2 34 12 72 56 28
32 55 57 60 54 4 -3 29 20 55 50 25 30 52 55 59 55 7 0 35 24 63 53 27 28 69
65 92 81 24 16 52 44 63 63 18 29 29 37 49 35 11 -2 98 95 92 102 -6 5 11 10
28 8 10 -2 108 106 102 112 -3 3 6 8 21 12 14 3 48 30 75 60 27 30 52 54 56
54 14 0 95 73 95 85 0 7 16 20 35 29 19 9 56 41 81 71 26 30 51 52 55 50 4 -3
38 28 75 70 37 41 70 72 74 70 5 -3 23 12 41 33 18 20 37 36 41 34 4 -1 8 2 8
7 0 5 23 26 50 46 28 20 50 41 50 46 0 5 17 26 37 47 20 20 34 31 29 24 -14
-22 10 -12 37 16 15 16 24 32 20 37 -5 4 -3 5 3 2 7 -4 19 5 28 18 9 14 21 23
26 20 5 -3 28 17 51 44 l43 50 37 -30 c44 -35 60 -38 33 -7 -12 14 -13 18 -3
10 9 -6 19 -9 22 -6 4 4 5 -3 2 -14 -2 -12 0 -24 6 -27 12 -8 12 -45 -1 -45
-18 0 -11 -29 9 -40 27 -14 61 -13 56 3 -3 6 5 23 16 37 11 14 17 19 13 11 -5
-11 -3 -13 10 -8 11 5 15 3 10 -5 -5 -8 -2 -9 10 -5 9 4 15 3 11 -2 -7 -12 61
-35 76 -25 7 4 9 3 5 -4 -9 -15 71 -26 149 -20 68 6 181 51 170 68 -3 5 0 7 7
5 13 -5 56 31 57 48 1 4 3 6 5 5 9 -6 46 37 42 49 -3 7 0 12 7 10 7 -1 12 5
13 13 0 25 43 112 60 125 9 6 17 26 18 42 0 17 3 29 5 27 7 -7 79 150 74 160
-4 5 -1 6 5 2 6 -4 18 6 27 24 9 17 20 28 24 25 5 -2 30 4 56 16 36 16 80 23
203 30 87 4 193 15 237 24 89 17 175 43 175 53 0 4 12 8 26 8 54 4 304 180
304 216 0 9 69 101 109 146 30 33 53 81 45 94 -4 6 -3 8 4 4 13 -8 44 72 67
178 14 62 16 102 11 192 -4 62 -10 125 -15 141 -5 15 -14 47 -20 71 -8 28 -16
40 -24 36 -7 -4 -9 -3 -5 1 5 5 -19 59 -52 122 -32 62 -57 113 -54 113 3 0 -4
16 -15 36 l-21 36 31 39 c17 22 30 41 28 43 -43 30 -59 46 -49 46 10 0 10 3 0
15 -7 8 -15 13 -19 10 -4 -2 -25 17 -46 43 -22 26 -47 53 -57 60 -10 7 -18 20
-18 28 0 19 -19 18 -26 -1 -4 -8 -10 -13 -15 -10 -4 3 -18 -8 -30 -25 l-23
-30 -28 27 c-15 15 -28 33 -28 41 0 8 -6 12 -15 9 -8 -4 -17 -1 -21 5 -4 7 -3
8 4 4 7 -4 12 -3 12 1 0 5 -14 17 -31 27 -18 11 -29 13 -24 7 4 -7 -10 -1 -31
13 -22 14 -82 46 -134 71 -52 26 -97 51 -101 56 -17 27 -265 49 -345 30z m860
-309 c15 9 24 3 56 -33 29 -34 36 -48 29 -61 -7 -12 -5 -25 6 -41 14 -23 12
-27 -53 -108 -38 -46 -96 -124 -130 -174 -96 -140 -93 -138 -125 -124 -15 7
-27 18 -27 25 0 7 -9 18 -20 24 -11 6 -20 19 -20 30 0 24 -42 73 -85 100 -37
23 -40 27 -26 49 14 21 53 -11 116 -94 58 -77 76 -90 104 -76 16 9 152 197
180 250 17 31 9 101 -15 135 -22 30 -75 50 -106 41 -21 -7 -65 -35 -188 -120
-63 -43 -90 -54 -90 -37 0 5 72 58 161 117 88 60 163 113 166 118 3 5 15 -1
27 -12 16 -15 25 -17 40 -9z m-420 -227 c-4 -8 -13 -15 -21 -15 -13 0 -13 3
-3 15 7 8 16 15 21 15 5 0 6 -7 3 -15z m-54 -30 c-7 -8 -9 -22 -6 -31 4 -10
-5 -31 -22 -54 l-28 -38 -24 20 -25 20 53 49 c52 48 77 64 52 34z m58 -59
c-13 -20 -27 -36 -32 -36 -5 0 -2 8 7 18 9 10 18 27 20 38 1 10 7 26 12 34 8
13 10 13 13 -2 2 -9 -7 -33 -20 -52z m152 35 c0 -16 -13 -19 -31 -8 -26 16
-24 25 6 19 14 -2 25 -8 25 -11z m-349 -13 c9 -19 9 -21 -2 -10 -18 17 -34 15
-19 -3 10 -12 10 -15 -4 -15 -17 0 -20 9 -10 34 9 22 21 20 35 -6z m488 -23
c11 -4 11 -8 1 -20 -17 -21 -30 -19 -30 5 0 13 -7 20 -20 20 -11 0 -20 4 -20
10 0 6 10 6 28 -1 15 -5 33 -12 41 -14z m-544 -103 c-8 -8 -25 10 -19 20 4 6
9 5 15 -3 4 -7 6 -15 4 -17z m16 -31 c33 -34 36 -51 12 -79 -29 -34 -65 -37
-99 -9 -42 35 -63 39 -129 22 -126 -33 -206 -90 -434 -306 -112 -106 -127
-117 -138 -102 -7 9 -13 20 -13 24 0 13 237 235 305 286 72 54 184 113 275
145 47 17 156 45 183 47 5 1 22 -12 38 -28z m139 4 c11 -13 10 -14 -4 -9 -9 3
-16 10 -16 15 0 13 6 11 20 -6z m190 -217 c0 -4 -3 -8 -6 -8 -12 0 -94 95 -94
108 0 8 23 -10 50 -39 28 -29 50 -56 50 -61z m100 45 c0 -16 -16 -17 -26 -2
-5 8 -9 8 -14 -1 -5 -7 -9 2 -12 23 l-4 34 28 -20 c15 -11 28 -27 28 -34z
m-524 -30 c-7 -7 -26 7 -26 19 0 6 6 6 15 -2 9 -7 13 -15 11 -17z m503 -47
c-2 -2 -13 8 -23 22 l-19 27 24 -22 c12 -12 21 -24 18 -27z m-86 -8 c-11 -13
-23 -30 -26 -38 -5 -13 -6 -12 -6 1 -1 9 6 22 14 29 8 7 12 16 9 21 -3 5 3 9
12 9 16 0 15 -2 -3 -22z m63 -15 c-7 -7 -26 7 -26 19 0 6 6 6 15 -2 9 -7 13
-15 11 -17z m-696 -30 c8 -9 10 -13 4 -10 -7 4 -17 0 -24 -8 -16 -19 -30 -19
-30 -1 0 8 -7 16 -15 20 -8 3 -15 10 -15 16 0 16 61 2 80 -17z m88 -111 c1 -5
-7 -14 -20 -18 -29 -9 -88 -56 -88 -70 0 -6 10 -19 21 -30 21 -19 22 -19 66
31 l44 50 18 -25 c16 -20 21 -22 35 -11 9 7 16 11 16 8 0 -3 -82 -81 -182
-174 l-183 -168 -24 24 c-13 13 -41 43 -63 66 l-38 43 117 115 c65 63 132 127
150 142 18 14 30 31 27 38 -2 7 6 17 18 23 19 8 29 6 52 -11 17 -12 32 -27 34
-33z m502 54 c0 -2 -8 -10 -17 -17 -16 -13 -17 -12 -4 4 13 16 21 21 21 13z
m-756 -118 c-37 -35 -76 -69 -88 -77 -12 -7 15 20 59 62 44 42 84 76 88 77 4
0 -22 -28 -59 -62z m662 39 c4 -4 0 -7 -9 -7 -9 0 -18 4 -21 9 -7 10 20 9 30
-2z m-19 -33 c6 -16 -14 -44 -31 -44 -6 0 -3 5 7 11 16 9 17 13 4 27 -29 34
-31 45 -8 32 12 -6 25 -18 28 -26z m-257 -64 c0 -5 -5 -10 -11 -10 -5 0 -7 5
-4 10 3 6 8 10 11 10 2 0 4 -4 4 -10z m-30 -30 c0 -5 -5 -10 -11 -10 -5 0 -7
5 -4 10 3 6 8 10 11 10 2 0 4 -4 4 -10z m45 -40 c-3 -5 -12 -10 -18 -10 -7 0
-6 4 3 10 19 12 23 12 15 0z m85 -27 c0 -17 -24 -27 -46 -19 -13 5 -13 9 3 30
19 25 43 19 43 -11z m-746 -87 c-43 -41 -81 -72 -84 -69 -6 6 141 142 154 143
5 0 -26 -33 -70 -74z m566 30 c0 -2 -8 -10 -17 -17 -16 -13 -17 -12 -4 4 13
16 21 21 21 13z m-50 -53 c-14 -9 -36 -26 -50 -37 -14 -11 -9 -4 9 17 19 20
42 37 50 37 10 0 7 -6 -9 -17z m-460 4 c0 -2 -10 -12 -22 -23 l-23 -19 19 23
c18 21 26 27 26 19z m-246 -159 c-16 -11 -56 -46 -89 -77 -49 -46 -47 -42 15
22 41 42 81 77 89 77 7 0 1 -10 -15 -22z m446 -4 c0 -8 -19 -13 -24 -6 -3 5 1
9 9 9 8 0 15 -2 15 -3z m-496 -129 c-4 -8 -8 -15 -10 -15 -2 0 -4 7 -4 15 0 8
4 15 10 15 5 0 7 -7 4 -15z m-23 -132 c13 -16 12 -17 -3 -4 -10 7 -18 15 -18
17 0 8 8 3 21 -13z m-13 -232 c2 -9 -30 20 -72 64 -41 44 -72 83 -70 87 6 10
138 -130 142 -151z m137 99 c21 -22 37 -40 34 -40 -3 0 -23 18 -44 40 -21 22
-37 40 -34 40 3 0 23 -18 44 -40z m-304 -122 c44 -48 64 -76 58 -83 -11 -11
-150 134 -142 148 8 14 18 7 84 -65z m-60 -5 c13 -16 12 -17 -3 -4 -10 7 -18
15 -18 17 0 8 8 3 21 -13z m-6 -177 c0 -28 -36 -6 -104 66 -37 40 -42 49 -31
62 11 14 20 7 74 -51 33 -36 61 -71 61 -77z m-14 77 c13 -16 12 -17 -3 -4 -10
7 -18 15 -18 17 0 8 8 3 21 -13z m542 -59 c-8 -4 -6 -11 8 -25 20 -20 25 -39
10 -39 -5 0 -14 7 -21 15 -7 8 -24 15 -37 15 -21 0 -23 2 -13 15 7 8 16 12 21
9 5 -3 9 0 9 5 0 6 8 11 18 10 9 0 12 -3 5 -5z m-715 -73 l62 -70 -26 -20
c-15 -12 -32 -21 -38 -21 -6 0 -5 4 3 9 12 8 13 12 1 26 -7 9 -19 14 -26 11
-7 -3 -11 0 -8 7 2 7 -12 29 -31 50 -19 21 -35 41 -35 46 0 8 21 31 30 31 3 0
34 -31 68 -69z m709 3 c-3 -3 -12 -4 -19 -1 -8 3 -5 6 6 6 11 1 17 -2 13 -5z
m-399 -103 c-2 -4 8 -18 22 -30 14 -13 18 -19 10 -15 -38 18 -64 54 -40 54 6
0 9 -4 8 -9z m-548 -111 c29 -32 55 -62 58 -64 6 -7 -27 -46 -39 -46 -4 0 -35
28 -68 62 l-61 62 22 23 c12 13 24 23 28 23 4 0 31 -27 60 -60z m-247 -348
c-33 -32 -36 -33 -53 -17 -11 10 -24 14 -31 9 -8 -5 -10 -3 -4 5 4 8 -6 27
-29 50 l-37 38 35 31 35 30 59 -56 59 -57 -34 -33z m-236 -114 l53 -52 -32
-33 c-18 -18 -37 -33 -44 -33 -6 0 -34 24 -62 52 l-51 53 31 32 c18 18 37 33
42 33 6 0 34 -23 63 -52z m-235 -220 l45 -53 -47 -42 c-42 -37 -49 -41 -61
-27 -6 8 -18 13 -26 10 -8 -3 -11 -1 -8 4 4 6 -7 25 -24 42 l-31 32 42 43 c23
24 47 43 54 43 6 0 32 -24 56 -52z m-265 -258 c18 -19 33 -37 33 -41 0 -3 -22
-27 -50 -53 l-49 -46 -33 33 c-67 68 -67 63 -13 117 54 55 51 55 112 -10z
m-313 -276 l39 -46 -55 -55 c-62 -62 -66 -61 -122 4 l-29 35 59 53 c32 30 61
54 64 55 3 0 23 -21 44 -46z"/>
<path d="M8048 7826 c-12 -28 -5 -56 15 -56 19 0 60 46 52 59 -3 6 -11 9 -16
6 -5 -4 -9 -1 -9 4 0 21 -31 11 -42 -13z"/>
<path d="M9273 5851 c-9 -12 -25 -21 -34 -21 -21 0 -59 -46 -59 -70 0 -10 -7
-23 -15 -30 -22 -19 -19 -32 22 -85 50 -63 306 -233 378 -251 58 -14 131 -59
202 -125 89 -82 222 -173 458 -314 99 -59 207 -126 240 -150 45 -32 74 -44
115 -50 73 -10 99 -21 203 -91 49 -32 107 -71 130 -87 23 -15 78 -39 122 -53
l81 -27 99 -150 c164 -248 226 -310 340 -338 28 -7 64 -23 82 -37 86 -65 309
-98 484 -72 156 22 335 91 465 177 42 28 54 41 54 62 0 26 81 155 137 217 20
22 58 43 128 69 55 21 118 50 140 65 22 15 72 44 112 64 l72 38 53 -25 c65
-31 257 -88 388 -116 229 -48 291 -40 489 61 150 76 284 123 381 133 41 4 108
0 180 -10 63 -8 183 -22 265 -30 168 -16 233 -29 286 -56 66 -33 109 -105 109
-181 0 -41 51 -111 170 -233 59 -60 117 -128 130 -150 13 -22 32 -49 42 -61
10 -11 17 -31 16 -45 -2 -30 35 -89 129 -204 41 -49 86 -115 101 -145 25 -50
27 -67 30 -189 2 -106 6 -140 21 -170 53 -103 167 -138 279 -86 67 31 94 31
157 1 56 -26 107 -76 133 -127 13 -25 25 -35 47 -37 16 -2 43 -15 60 -29 38
-33 102 -63 135 -63 57 0 96 19 108 53 19 52 14 123 -12 190 -13 34 -29 86
-35 115 -23 113 -101 213 -252 325 -78 57 -110 88 -128 121 -13 25 -34 52 -47
61 -14 9 -37 42 -53 74 -15 32 -41 75 -56 95 l-27 36 43 0 c24 0 68 7 98 15
30 8 59 11 65 8 28 -16 125 -106 130 -120 9 -22 4 -25 -58 -32 l-55 -6 50 -67
c39 -52 60 -71 94 -84 25 -9 54 -14 65 -11 30 8 24 0 -17 -23 l-38 -20 85 5
c300 17 277 17 389 -15 135 -39 200 -39 242 2 8 7 26 21 41 31 42 26 64 113
48 184 -8 40 -18 58 -38 70 -15 9 -50 38 -78 64 -62 58 -91 73 -191 100 -98
27 -117 36 -233 119 -111 79 -142 96 -195 106 -28 5 -56 23 -102 66 -35 33
-81 66 -101 75 -20 8 -58 34 -83 57 -25 22 -72 60 -103 84 -32 24 -65 57 -74
74 -30 56 -193 206 -276 255 -43 26 -85 58 -94 71 -8 13 -34 37 -58 53 -28 19
-57 54 -83 98 -49 83 -102 132 -184 171 -184 88 -662 264 -812 300 -153 36
-352 53 -570 47 -287 -8 -457 -37 -860 -148 -295 -81 -381 -99 -507 -106 -103
-6 -109 -5 -230 33 -107 34 -135 39 -218 39 -120 0 -161 -18 -272 -122 -75
-70 -82 -75 -114 -69 -24 5 -34 3 -35 -6 -1 -7 -3 -20 -4 -28 -1 -8 -3 -26 -4
-40 0 -15 -24 -51 -57 -88 l-57 -63 -23 22 c-13 12 -24 31 -24 41 0 19 -29 80
-53 111 -10 12 -28 17 -61 17 -36 0 -56 7 -82 26 -19 15 -34 31 -34 38 -1 17
-209 113 -262 121 -55 7 -259 -37 -279 -61 -6 -8 -18 -14 -26 -14 -8 0 -28 -8
-46 -17 -56 -29 -108 -18 -297 64 -508 220 -614 269 -732 334 -142 79 -236
113 -281 103 -16 -3 -62 -6 -102 -7 -71 0 -74 1 -151 52 -43 28 -84 51 -90 51
-7 0 -19 3 -28 6 -8 3 -22 -3 -33 -15z m5147 -1042 l25 -7 -24 -1 c-43 -2
-202 -61 -304 -114 -101 -51 -103 -52 -193 -52 -84 0 -95 3 -165 37 -41 20
-85 48 -98 62 l-24 26 74 0 c41 0 109 -5 151 -12 63 -9 80 -9 94 2 27 23 144
51 224 54 41 2 86 8 100 14 25 10 91 6 140 -9z m977 -125 c-3 -3 -12 -4 -19
-1 -8 3 -5 6 6 6 11 1 17 -2 13 -5z m53 -14 c18 -12 2 -12 -25 0 -13 6 -15 9
-5 9 8 0 22 -4 30 -9z m91 -145 c0 -19 -29 -16 -34 4 -4 16 -1 18 15 12 11 -4
19 -11 19 -16z m-4335 -67 l19 -21 -27 18 c-29 18 -34 25 -20 25 5 0 17 -10
28 -22z m4464 -389 c0 -4 -9 -5 -19 -2 -13 3 -23 20 -30 51 -7 26 -14 56 -17
67 -3 11 11 -9 30 -45 20 -35 36 -67 36 -71z"/>
<path d="M19199 5787 c-102 -35 -137 -64 -249 -208 -368 -475 -703 -843 -1129
-1242 l-134 -126 163 51 c605 186 1026 352 1611 635 200 97 208 102 253 159
171 217 118 535 -114 684 -113 72 -272 91 -401 47z"/>
<path d="M4856 4684 c-26 -19 -53 -34 -60 -33 -6 0 -1 5 12 11 33 16 27 29 -9
16 -19 -6 -61 -8 -104 -5 l-73 7 -31 -35 c-36 -42 -44 -44 -35 -10 9 37 -19
65 -67 65 -41 0 -70 -27 -68 -65 0 -18 1 -17 10 4 l10 25 26 -26 c29 -30 23
-52 -13 -45 -29 5 -32 -9 -4 -18 12 -4 27 -2 35 5 10 8 15 8 21 -1 4 -7 -12
-29 -42 -56 -92 -82 -119 -91 -108 -34 7 34 -23 61 -67 61 -29 0 -69 -40 -69
-68 0 -13 3 -12 14 4 15 19 15 19 37 -3 29 -29 19 -58 -17 -49 -18 5 -24 3
-19 -5 5 -7 21 -9 41 -6 43 7 54 -10 23 -34 -109 -85 -165 -109 -138 -58 27
51 -81 85 -115 37 -20 -28 -23 -61 -3 -34 12 16 14 15 37 -9 24 -26 24 -27 6
-40 -10 -8 -23 -12 -27 -9 -5 3 -9 0 -9 -5 0 -14 16 -14 40 -1 11 6 21 6 24 1
3 -5 -19 -23 -49 -40 -30 -17 -55 -38 -55 -47 0 -8 15 -30 33 -49 30 -31 46
-59 78 -143 5 -13 17 -26 27 -29 10 -2 22 -14 27 -26 6 -13 33 -30 70 -44 33
-13 76 -37 94 -54 l34 -30 33 32 c19 18 34 29 34 24 0 -4 9 0 19 9 18 17 21
17 45 1 38 -25 32 -38 -14 -33 -46 4 -48 3 -19 -12 25 -14 75 3 89 31 17 31
12 78 -10 91 -19 12 -19 14 12 45 38 39 50 41 70 11 21 -31 84 -31 109 1 25
31 25 77 -1 93 -11 7 -20 16 -20 20 0 9 89 73 101 73 6 0 13 6 17 13 6 9 16 4
36 -17 30 -31 22 -48 -15 -36 -15 5 -19 4 -15 -4 14 -21 54 -11 80 20 29 35
33 61 11 83 -14 13 -13 16 3 28 13 9 21 30 24 64 5 56 52 164 71 164 7 0 17
11 23 24 10 22 5 30 -70 104 l-81 80 -49 -34z m-211 -41 c-11 -3 -60 -44 -110
-91 l-90 -87 90 93 c58 60 97 92 110 91 20 -1 20 -1 0 -6z m127 -1 c-6 -5 -33
-9 -60 -9 l-47 -1 40 8 c58 11 83 11 67 2z m88 -37 c-24 -25 -46 -45 -49 -45
-3 0 15 20 39 45 24 25 46 45 49 45 3 0 -15 -20 -39 -45z m120 15 c0 -5 -7
-10 -15 -10 -8 0 -15 5 -15 10 0 6 7 10 15 10 8 0 15 -4 15 -10z m-190 -73 c0
-2 -17 -19 -37 -38 l-38 -34 34 38 c33 34 41 42 41 34z m-173 -23 c-3 -3 -12
-4 -19 -1 -8 3 -5 6 6 6 11 1 17 -2 13 -5z m-187 -67 c0 -2 -12 -14 -27 -28
l-28 -24 24 28 c23 25 31 32 31 24z m-60 -50 c0 -2 -10 -12 -22 -23 l-23 -19
19 23 c18 21 26 27 26 19z m-50 -41 c0 -2 -8 -10 -17 -17 -16 -13 -17 -12 -4
4 13 16 21 21 21 13z m251 -46 c-34 -29 -51 -31 -51 -6 0 7 12 17 28 23 49 20
58 13 23 -17z m-291 16 c0 -2 -8 -10 -17 -17 -16 -13 -17 -12 -4 4 13 16 21
21 21 13z m381 -23 c-5 -10 -25 -39 -44 -66 l-34 -47 -11 25 c-11 23 -8 27 41
65 60 45 61 46 48 23z m159 -18 c0 -2 -7 -5 -15 -9 -9 -3 -15 0 -15 9 0 9 6
12 15 9 8 -4 15 -7 15 -9z m-618 -17 c-6 -7 -25 -22 -44 -32 -39 -23 -32 -13
14 20 38 26 45 29 30 12z m201 -95 c-27 -24 -51 -43 -56 -43 -12 0 22 48 39
54 8 3 14 12 14 20 0 21 32 38 42 23 5 -8 -10 -28 -39 -54z m-313 22 c0 -2
-10 -9 -22 -15 -22 -11 -22 -10 -4 4 21 17 26 19 26 11z m400 -50 c0 -7 -6
-15 -12 -18 -7 -3 -31 -13 -53 -21 l-40 -17 45 40 c44 39 60 43 60 16z m136
-5 c0 -11 -6 -20 -13 -20 -11 0 -11 5 -3 20 6 11 12 20 13 20 2 0 3 -9 3 -20z
m66 -117 c26 -23 22 -33 -11 -33 -33 0 -46 13 -37 35 7 20 25 19 48 -2z m-249
-37 c4 -10 0 -14 -12 -13 -11 1 -17 7 -14 14 7 17 20 17 26 -1z"/>
<path d="M3950 3907 l0 -217 215 0 c118 0 215 4 215 9 0 18 -126 118 -164 131
-56 18 -152 114 -165 165 -7 26 -27 56 -56 85 l-45 44 0 -217z"/>
</g>
</svg>
